Ultrasound_pressure_Measuerments/3D_aneurysm_channel_scan/raw_csv/CSV07_X14_Y09_Z13.csv

Model,TBS2072
Firmware Version,v1.26.0

Point Format,Y
Horizontal Units,S
Horizontal Scale,1e-06
Sample Interval,8e-09
Filter Frequency,1e+08
Record Length,2000
Gating,0.0% to 100.0%
Probe Attenuation,1
Vertical Units,V
Vertical Offset,0
Vertical Scale,0.01
Label,
TIME,CH1
-6.960e-06,1.49012e-11
-6.952e-06,0.0005
-6.944e-06,0.0005
-6.936e-06,0.0005
-6.928e-06,1.49012e-11
-6.920e-06,1.49012e-11
-6.912e-06,1.49012e-11
-6.904e-06,0.0005
-6.896e-06,0.0005
-6.888e-06,-0.0005
-6.880e-06,1.49012e-11
-6.872e-06,-0.0005
-6.864e-06,0.0005
-6.856e-06,0.0005
-6.848e-06,1.49012e-11
-6.840e-06,1.49012e-11
-6.832e-06,1.49012e-11
-6.824e-06,1.49012e-11
-6.816e-06,1.49012e-11
-6.808e-06,1.49012e-11
-6.800e-06,1.49012e-11
-6.792e-06,1.49012e-11
-6.784e-06,0.0005
-6.776e-06,-0.0005
-6.768e-06,0.0005
-6.760e-06,1.49012e-11
-6.752e-06,1.49012e-11
-6.744e-06,1.49012e-11
-6.736e-06,0.001
-6.728e-06,1.49012e-11
-6.720e-06,-0.0005
-6.712e-06,0.0005
-6.704e-06,0.001
-6.696e-06,1.49012e-11
-6.688e-06,0.0005
-6.680e-06,0.0005
-6.672e-06,0.0005
-6.664e-06,0.0005
-6.656e-06,0.0005
-6.648e-06,-0.0005
-6.640e-06,-0.0005
-6.632e-06,0.0005
-6.624e-06,1.49012e-11
-6.616e-06,0.0005
-6.608e-06,1.49012e-11
-6.600e-06,1.49012e-11
-6.592e-06,1.49012e-11
-6.584e-06,1.49012e-11
-6.576e-06,0.0005
-6.568e-06,1.49012e-11
-6.560e-06,1.49012e-11
-6.552e-06,1.49012e-11
-6.544e-06,1.49012e-11
-6.536e-06,0.0005
-6.528e-06,0.0005
-6.520e-06,1.49012e-11
-6.512e-06,1.49012e-11
-6.504e-06,1.49012e-11
-6.496e-06,0.0005
-6.488e-06,1.49012e-11
-6.480e-06,1.49012e-11
-6.472e-06,-0.0005
-6.464e-06,1.49012e-11
-6.456e-06,1.49012e-11
-6.448e-06,0.0005
-6.440e-06,1.49012e-11
-6.432e-06,1.49012e-11
-6.424e-06,0.0005
-6.416e-06,1.49012e-11
-6.408e-06,1.49012e-11
-6.400e-06,1.49012e-11
-6.392e-06,0.0005
-6.384e-06,0.001
-6.376e-06,1.49012e-11
-6.368e-06,1.49012e-11
-6.360e-06,0.0005
-6.352e-06,-0.0005
-6.344e-06,1.49012e-11
-6.336e-06,0.0005
-6.328e-06,-0.0005
-6.320e-06,0.001
-6.312e-06,1.49012e-11
-6.304e-06,0.0005
-6.296e-06,0.0005
-6.288e-06,1.49012e-11
-6.280e-06,1.49012e-11
-6.272e-06,0.0005
-6.264e-06,1.49012e-11
-6.256e-06,0.0005
-6.248e-06,1.49012e-11
-6.240e-06,1.49012e-11
-6.232e-06,0.0005
-6.224e-06,0.0015
-6.216e-06,1.49012e-11
-6.208e-06,1.49012e-11
-6.200e-06,1.49012e-11
-6.192e-06,0.0005
-6.184e-06,1.49012e-11
-6.176e-06,0.0005
-6.168e-06,1.49012e-11
-6.160e-06,0.0005
-6.152e-06,0.0005
-6.144e-06,0.001
-6.136e-06,1.49012e-11
-6.128e-06,0.0005
-6.120e-06,0.0005
-6.112e-06,1.49012e-11
-6.104e-06,0.0005
-6.096e-06,0.0005
-6.088e-06,0.0005
-6.080e-06,0.0005
-6.072e-06,1.49012e-11
-6.064e-06,0.0005
-6.056e-06,0.001
-6.048e-06,1.49012e-11
-6.040e-06,-0.0005
-6.032e-06,1.49012e-11
-6.024e-06,1.49012e-11
-6.016e-06,0.0005
-6.008e-06,0.0005
-6.000e-06,1.49012e-11
-5.992e-06,1.49012e-11
-5.984e-06,1.49012e-11
-5.976e-06,0.0005
-5.968e-06,1.49012e-11
-5.960e-06,1.49012e-11
-5.952e-06,1.49012e-11
-5.944e-06,0.0005
-5.936e-06,0.0005
-5.928e-06,1.49012e-11
-5.920e-06,-0.0005
-5.912e-06,0.001
-5.904e-06,1.49012e-11
-5.896e-06,0.0005
-5.888e-06,-0.001
-5.880e-06,0.001
-5.872e-06,1.49012e-11
-5.864e-06,0.0005
-5.856e-06,0.0005
-5.848e-06,0.0005
-5.840e-06,0.001
-5.832e-06,0.0005
-5.824e-06,1.49012e-11
-5.816e-06,0.001
-5.808e-06,1.49012e-11
-5.800e-06,-0.0005
-5.792e-06,1.49012e-11
-5.784e-06,0.001
-5.776e-06,0.0005
-5.768e-06,1.49012e-11
-5.760e-06,1.49012e-11
-5.752e-06,1.49012e-11
-5.744e-06,0.0005
-5.736e-06,0.0015
-5.728e-06,1.49012e-11
-5.720e-06,0.0005
-5.712e-06,0.0005
-5.704e-06,0.0005
-5.696e-06,1.49012e-11
-5.688e-06,1.49012e-11
-5.680e-06,0.0005
-5.672e-06,1.49012e-11
-5.664e-06,-0.0005
-5.656e-06,1.49012e-11
-5.648e-06,0.0005
-5.640e-06,1.49012e-11
-5.632e-06,1.49012e-11
-5.624e-06,0.001
-5.616e-06,0.001
-5.608e-06,0.0005
-5.600e-06,0.0005
-5.592e-06,1.49012e-11
-5.584e-06,1.49012e-11
-5.576e-06,-0.0005
-5.568e-06,1.49012e-11
-5.560e-06,0.0005
-5.552e-06,0.0005
-5.544e-06,1.49012e-11
-5.536e-06,0.0005
-5.528e-06,-0.0005
-5.520e-06,0.0005
-5.512e-06,0.0005
-5.504e-06,0.0005
-5.496e-06,1.49012e-11
-5.488e-06,1.49012e-11
-5.480e-06,1.49012e-11
-5.472e-06,0.0005
-5.464e-06,1.49012e-11
-5.456e-06,0.001
-5.448e-06,1.49012e-11
-5.440e-06,-0.0005
-5.432e-06,1.49012e-11
-5.424e-06,0.0005
-5.416e-06,0.001
-5.408e-06,0.001
-5.400e-06,1.49012e-11
-5.392e-06,0.0005
-5.384e-06,0.0005
-5.376e-06,1.49012e-11
-5.368e-06,0.0005
-5.360e-06,1.49012e-11
-5.352e-06,0.0005
-5.344e-06,0.0005
-5.336e-06,0.0005
-5.328e-06,0.0005
-5.320e-06,0.001
-5.312e-06,1.49012e-11
-5.304e-06,1.49012e-11
-5.296e-06,1.49012e-11
-5.288e-06,0.001
-5.280e-06,0.0005
-5.272e-06,1.49012e-11
-5.264e-06,0.0005
-5.256e-06,0.0005
-5.248e-06,-0.0005
-5.240e-06,0.0005
-5.232e-06,0.0005
-5.224e-06,1.49012e-11
-5.216e-06,1.49012e-11
-5.208e-06,1.49012e-11
-5.200e-06,0.0005
-5.192e-06,0.0005
-5.184e-06,0.0005
-5.176e-06,0.0005
-5.168e-06,0.001
-5.160e-06,0.0005
-5.152e-06,0.0005
-5.144e-06,0.0005
-5.136e-06,0.0005
-5.128e-06,1.49012e-11
-5.120e-06,1.49012e-11
-5.112e-06,0.001
-5.104e-06,1.49012e-11
-5.096e-06,1.49012e-11
-5.088e-06,0.001
-5.080e-06,0.0005
-5.072e-06,1.49012e-11
-5.064e-06,0.0005
-5.056e-06,0.001
-5.048e-06,0.001
-5.040e-06,-0.0005
-5.032e-06,0.0005
-5.024e-06,1.49012e-11
-5.016e-06,-0.0005
-5.008e-06,0.0005
-5.000e-06,-0.0005
-4.992e-06,0.0005
-4.984e-06,1.49012e-11
-4.976e-06,1.49012e-11
-4.968e-06,1.49012e-11
-4.960e-06,0.0005
-4.952e-06,0.0005
-4.944e-06,-0.0005
-4.936e-06,0.0005
-4.928e-06,0.0005
-4.920e-06,0.0005
-4.912e-06,1.49012e-11
-4.904e-06,1.49012e-11
-4.896e-06,-0.001
-4.888e-06,1.49012e-11
-4.880e-06,0.0005
-4.872e-06,-0.0005
-4.864e-06,1.49012e-11
-4.856e-06,1.49012e-11
-4.848e-06,0.0005
-4.840e-06,0.0005
-4.832e-06,0.0005
-4.824e-06,1.49012e-11
-4.816e-06,1.49012e-11
-4.808e-06,0.001
-4.800e-06,0.0005
-4.792e-06,0.0005
-4.784e-06,0.001
-4.776e-06,-0.0005
-4.768e-06,0.0005
-4.760e-06,0.0005
-4.752e-06,1.49012e-11
-4.744e-06,-0.0005
-4.736e-06,1.49012e-11
-4.728e-06,1.49012e-11
-4.720e-06,1.49012e-11
-4.712e-06,0.0005
-4.704e-06,1.49012e-11
-4.696e-06,-0.0005
-4.688e-06,1.49012e-11
-4.680e-06,-0.0005
-4.672e-06,-0.0005
-4.664e-06,1.49012e-11
-4.656e-06,-0.0005
-4.648e-06,0.0005
-4.640e-06,0.0005
-4.632e-06,1.49012e-11
-4.624e-06,1.49012e-11
-4.616e-06,1.49012e-11
-4.608e-06,1.49012e-11
-4.600e-06,0.0005
-4.592e-06,0.0005
-4.584e-06,1.49012e-11
-4.576e-06,0.001
-4.568e-06,1.49012e-11
-4.560e-06,0.0005
-4.552e-06,1.49012e-11
-4.544e-06,1.49012e-11
-4.536e-06,0.0005
-4.528e-06,1.49012e-11
-4.520e-06,1.49012e-11
-4.512e-06,1.49012e-11
-4.504e-06,-0.001
-4.496e-06,1.49012e-11
-4.488e-06,1.49012e-11
-4.480e-06,0.0005
-4.472e-06,0.001
-4.464e-06,0.0005
-4.456e-06,0.001
-4.448e-06,0.0005
-4.440e-06,-0.0005
-4.432e-06,0.0005
-4.424e-06,-0.0005
-4.416e-06,0.0005
-4.408e-06,1.49012e-11
-4.400e-06,0.0005
-4.392e-06,-0.0005
-4.384e-06,0.0005
-4.376e-06,1.49012e-11
-4.368e-06,1.49012e-11
-4.360e-06,1.49012e-11
-4.352e-06,1.49012e-11
-4.344e-06,-0.0005
-4.336e-06,1.49012e-11
-4.328e-06,-0.0005
-4.320e-06,1.49012e-11
-4.312e-06,1.49012e-11
-4.304e-06,1.49012e-11
-4.296e-06,0.001
-4.288e-06,1.49012e-11
-4.280e-06,0.0005
-4.272e-06,1.49012e-11
-4.264e-06,1.49012e-11
-4.256e-06,0.0005
-4.248e-06,0.0005
-4.240e-06,-0.0005
-4.232e-06,1.49012e-11
-4.224e-06,1.49012e-11
-4.216e-06,-0.0005
-4.208e-06,1.49012e-11
-4.200e-06,1.49012e-11
-4.192e-06,1.49012e-11
-4.184e-06,0.001
-4.176e-06,1.49012e-11
-4.168e-06,-0.0005
-4.160e-06,0.001
-4.152e-06,-0.0005
-4.144e-06,0.0005
-4.136e-06,0.001
-4.128e-06,1.49012e-11
-4.120e-06,0.0005
-4.112e-06,1.49012e-11
-4.104e-06,0.0005
-4.096e-06,1.49012e-11
-4.088e-06,-0.0005
-4.080e-06,-0.001
-4.072e-06,0.0005
-4.064e-06,0.0005
-4.056e-06,0.0005
-4.048e-06,0.0005
-4.040e-06,1.49012e-11
-4.032e-06,1.49012e-11
-4.024e-06,1.49012e-11
-4.016e-06,0.0005
-4.008e-06,1.49012e-11
-4.000e-06,0.001
-3.992e-06,1.49012e-11
-3.984e-06,-0.0005
-3.976e-06,-0.0005
-3.968e-06,-0.0005
-3.960e-06,1.49012e-11
-3.952e-06,-0.0005
-3.944e-06,1.49012e-11
-3.936e-06,-0.001
-3.928e-06,0.0005
-3.920e-06,1.49012e-11
-3.912e-06,-0.0005
-3.904e-06,1.49012e-11
-3.896e-06,0.0005
-3.888e-06,0.0005
-3.880e-06,0.0005
-3.872e-06,1.49012e-11
-3.864e-06,-0.0005
-3.856e-06,-0.0005
-3.848e-06,1.49012e-11
-3.840e-06,-0.0005
-3.832e-06,0.0005
-3.824e-06,1.49012e-11
-3.816e-06,-0.0005
-3.808e-06,1.49012e-11
-3.800e-06,0.0005
-3.792e-06,0.0005
-3.784e-06,-0.0005
-3.776e-06,-0.0005
-3.768e-06,1.49012e-11
-3.760e-06,1.49012e-11
-3.752e-06,1.49012e-11
-3.744e-06,0.0005
-3.736e-06,1.49012e-11
-3.728e-06,1.49012e-11
-3.720e-06,1.49012e-11
-3.712e-06,1.49012e-11
-3.704e-06,1.49012e-11
-3.696e-06,1.49012e-11
-3.688e-06,0.0005
-3.680e-06,1.49012e-11
-3.672e-06,1.49012e-11
-3.664e-06,1.49012e-11
-3.656e-06,1.49012e-11
-3.648e-06,0.0005
-3.640e-06,-0.0005
-3.632e-06,1.49012e-11
-3.624e-06,1.49012e-11
-3.616e-06,1.49012e-11
-3.608e-06,-0.0005
-3.600e-06,1.49012e-11
-3.592e-06,1.49012e-11
-3.584e-06,1.49012e-11
-3.576e-06,1.49012e-11
-3.568e-06,1.49012e-11
-3.560e-06,0.0005
-3.552e-06,1.49012e-11
-3.544e-06,0.0005
-3.536e-06,1.49012e-11
-3.528e-06,1.49012e-11
-3.520e-06,-0.0005
-3.512e-06,0.001
-3.504e-06,1.49012e-11
-3.496e-06,1.49012e-11
-3.488e-06,-0.001
-3.480e-06,-0.001
-3.472e-06,-0.001
-3.464e-06,1.49012e-11
-3.456e-06,-0.0005
-3.448e-06,0.0005
-3.440e-06,1.49012e-11
-3.432e-06,1.49012e-11
-3.424e-06,0.0005
-3.416e-06,-0.0005
-3.408e-06,-0.0005
-3.400e-06,0.0005
-3.392e-06,1.49012e-11
-3.384e-06,0.0005
-3.376e-06,1.49012e-11
-3.368e-06,-0.0005
-3.360e-06,1.49012e-11
-3.352e-06,0.001
-3.344e-06,1.49012e-11
-3.336e-06,1.49012e-11
-3.328e-06,0.0005
-3.320e-06,1.49012e-11
-3.312e-06,-0.0005
-3.304e-06,1.49012e-11
-3.296e-06,1.49012e-11
-3.288e-06,1.49012e-11
-3.280e-06,-0.0005
-3.272e-06,0.0005
-3.264e-06,1.49012e-11
-3.256e-06,-0.001
-3.248e-06,0.0005
-3.240e-06,1.49012e-11
-3.232e-06,-0.0005
-3.224e-06,-0.0005
-3.216e-06,0.0005
-3.208e-06,1.49012e-11
-3.200e-06,0.0005
-3.192e-06,0.0005
-3.184e-06,-0.0005
-3.176e-06,1.49012e-11
-3.168e-06,0.0005
-3.160e-06,0.0005
-3.152e-06,1.49012e-11
-3.144e-06,0.0005
-3.136e-06,1.49012e-11
-3.128e-06,-0.0005
-3.120e-06,-0.0005
-3.112e-06,1.49012e-11
-3.104e-06,1.49012e-11
-3.096e-06,-0.0005
-3.088e-06,-0.0005
-3.080e-06,-0.0005
-3.072e-06,-0.0005
-3.064e-06,-0.0005
-3.056e-06,-0.0005
-3.048e-06,1.49012e-11
-3.040e-06,1.49012e-11
-3.032e-06,0.0005
-3.024e-06,-0.0005
-3.016e-06,-0.0005
-3.008e-06,-0.0005
-3.000e-06,1.49012e-11
-2.992e-06,0.0005
-2.984e-06,1.49012e-11
-2.976e-06,0.0005
-2.968e-06,1.49012e-11
-2.960e-06,-0.0005
-2.952e-06,1.49012e-11
-2.944e-06,-0.0005
-2.936e-06,1.49012e-11
-2.928e-06,1.49012e-11
-2.920e-06,0.0005
-2.912e-06,0.001
-2.904e-06,1.49012e-11
-2.896e-06,1.49012e-11
-2.888e-06,-0.0005
-2.880e-06,1.49012e-11
-2.872e-06,1.49012e-11
-2.864e-06,1.49012e-11
-2.856e-06,1.49012e-11
-2.848e-06,-0.0005
-2.840e-06,-0.0005
-2.832e-06,1.49012e-11
-2.824e-06,0.0005
-2.816e-06,1.49012e-11
-2.808e-06,1.49012e-11
-2.800e-06,1.49012e-11
-2.792e-06,1.49012e-11
-2.784e-06,1.49012e-11
-2.776e-06,1.49012e-11
-2.768e-06,0.0005
-2.760e-06,-0.001
-2.752e-06,-0.001
-2.744e-06,-0.0005
-2.736e-06,1.49012e-11
-2.728e-06,1.49012e-11
-2.720e-06,1.49012e-11
-2.712e-06,0.0005
-2.704e-06,0.0005
-2.696e-06,1.49012e-11
-2.688e-06,0.0005
-2.680e-06,1.49012e-11
-2.672e-06,-0.0005
-2.664e-06,1.49012e-11
-2.656e-06,1.49012e-11
-2.648e-06,0.0005
-2.640e-06,1.49012e-11
-2.632e-06,-0.0005
-2.624e-06,1.49012e-11
-2.616e-06,-0.0005
-2.608e-06,1.49012e-11
-2.600e-06,0.0005
-2.592e-06,-0.001
-2.584e-06,1.49012e-11
-2.576e-06,1.49012e-11
-2.568e-06,-0.0005
-2.560e-06,1.49012e-11
-2.552e-06,1.49012e-11
-2.544e-06,-0.0005
-2.536e-06,1.49012e-11
-2.528e-06,1.49012e-11
-2.520e-06,-0.0005
-2.512e-06,0.001
-2.504e-06,0.0005
-2.496e-06,0.0005
-2.488e-06,1.49012e-11
-2.480e-06,1.49012e-11
-2.472e-06,0.0005
-2.464e-06,1.49012e-11
-2.456e-06,1.49012e-11
-2.448e-06,1.49012e-11
-2.440e-06,0.0005
-2.432e-06,-0.0005
-2.424e-06,1.49012e-11
-2.416e-06,0.0005
-2.408e-06,1.49012e-11
-2.400e-06,0.0005
-2.392e-06,0.0005
-2.384e-06,1.49012e-11
-2.376e-06,0.001
-2.368e-06,1.49012e-11
-2.360e-06,1.49012e-11
-2.352e-06,0.0005
-2.344e-06,1.49012e-11
-2.336e-06,1.49012e-11
-2.328e-06,-0.0005
-2.320e-06,0.0005
-2.312e-06,0.0005
-2.304e-06,1.49012e-11
-2.296e-06,-0.0005
-2.288e-06,1.49012e-11
-2.280e-06,-0.0005
-2.272e-06,0.0005
-2.264e-06,0.0005
-2.256e-06,0.001
-2.248e-06,1.49012e-11
-2.240e-06,0.0005
-2.232e-06,1.49012e-11
-2.224e-06,-0.0005
-2.216e-06,0.0005
-2.208e-06,-0.0005
-2.200e-06,1.49012e-11
-2.192e-06,1.49012e-11
-2.184e-06,-0.0005
-2.176e-06,0.0005
-2.168e-06,1.49012e-11
-2.160e-06,1.49012e-11
-2.152e-06,1.49012e-11
-2.144e-06,1.49012e-11
-2.136e-06,0.0005
-2.128e-06,-0.0005
-2.120e-06,1.49012e-11
-2.112e-06,0.0005
-2.104e-06,1.49012e-11
-2.096e-06,1.49012e-11
-2.088e-06,1.49012e-11
-2.080e-06,0.0005
-2.072e-06,1.49012e-11
-2.064e-06,-0.0005
-2.056e-06,-0.0005
-2.048e-06,0.001
-2.040e-06,1.49012e-11
-2.032e-06,1.49012e-11
-2.024e-06,-0.0005
-2.016e-06,0.0005
-2.008e-06,-0.0005
-2.000e-06,1.49012e-11
-1.992e-06,1.49012e-11
-1.984e-06,0.0005
-1.976e-06,0.0005
-1.968e-06,0.0005
-1.960e-06,0.0005
-1.952e-06,1.49012e-11
-1.944e-06,0.001
-1.936e-06,0.0005
-1.928e-06,0.0005
-1.920e-06,0.0005
-1.912e-06,0.0005
-1.904e-06,0.0005
-1.896e-06,1.49012e-11
-1.888e-06,1.49012e-11
-1.880e-06,0.0005
-1.872e-06,1.49012e-11
-1.864e-06,-0.0005
-1.856e-06,-0.0005
-1.848e-06,1.49012e-11
-1.840e-06,-0.0005
-1.832e-06,0.0005
-1.824e-06,0.0005
-1.816e-06,1.49012e-11
-1.808e-06,0.0005
-1.800e-06,1.49012e-11
-1.792e-06,1.49012e-11
-1.784e-06,1.49012e-11
-1.776e-06,0.001
-1.768e-06,0.0005
-1.760e-06,0.0005
-1.752e-06,0.0005
-1.744e-06,1.49012e-11
-1.736e-06,0.0005
-1.728e-06,0.0005
-1.720e-06,0.0005
-1.712e-06,-0.0005
-1.704e-06,-0.0005
-1.696e-06,1.49012e-11
-1.688e-06,1.49012e-11
-1.680e-06,1.49012e-11
-1.672e-06,1.49012e-11
-1.664e-06,-0.001
-1.656e-06,0.001
-1.648e-06,-0.001
-1.640e-06,1.49012e-11
-1.632e-06,1.49012e-11
-1.624e-06,0.0005
-1.616e-06,-0.0005
-1.608e-06,0.0005
-1.600e-06,1.49012e-11
-1.592e-06,1.49012e-11
-1.584e-06,1.49012e-11
-1.576e-06,1.49012e-11
-1.568e-06,0.0005
-1.560e-06,1.49012e-11
-1.552e-06,-0.0015
-1.544e-06,0.0005
-1.536e-06,-0.0005
-1.528e-06,1.49012e-11
-1.520e-06,0.0005
-1.512e-06,1.49012e-11
-1.504e-06,0.001
-1.496e-06,1.49012e-11
-1.488e-06,-0.0005
-1.480e-06,1.49012e-11
-1.472e-06,-0.0005
-1.464e-06,1.49012e-11
-1.456e-06,0.0005
-1.448e-06,0.0005
-1.440e-06,1.49012e-11
-1.432e-06,0.0005
-1.424e-06,1.49012e-11
-1.416e-06,-0.0005
-1.408e-06,0.0005
-1.400e-06,0.0005
-1.392e-06,0.0005
-1.384e-06,0.0005
-1.376e-06,1.49012e-11
-1.368e-06,-0.0005
-1.360e-06,1.49012e-11
-1.352e-06,-0.0005
-1.344e-06,0.0005
-1.336e-06,1.49012e-11
-1.328e-06,-0.001
-1.320e-06,0.0005
-1.312e-06,1.49012e-11
-1.304e-06,1.49012e-11
-1.296e-06,1.49012e-11
-1.288e-06,-0.0005
-1.280e-06,-0.0005
-1.272e-06,-0.0005
-1.264e-06,0.0005
-1.256e-06,1.49012e-11
-1.248e-06,1.49012e-11
-1.240e-06,1.49012e-11
-1.232e-06,0.0005
-1.224e-06,1.49012e-11
-1.216e-06,1.49012e-11
-1.208e-06,1.49012e-11
-1.200e-06,-0.0005
-1.192e-06,1.49012e-11
-1.184e-06,0.0005
-1.176e-06,-0.0005
-1.168e-06,0.0005
-1.160e-06,-0.0005
-1.152e-06,-0.0005
-1.144e-06,0.0005
-1.136e-06,1.49012e-11
-1.128e-06,0.0005
-1.120e-06,-0.0005
-1.112e-06,0.0005
-1.104e-06,0.0005
-1.096e-06,0.0005
-1.088e-06,1.49012e-11
-1.080e-06,0.0005
-1.072e-06,1.49012e-11
-1.064e-06,1.49012e-11
-1.056e-06,1.49012e-11
-1.048e-06,1.49012e-11
-1.040e-06,1.49012e-11
-1.032e-06,1.49012e-11
-1.024e-06,0.0005
-1.016e-06,1.49012e-11
-1.008e-06,0.0005
-1.000e-06,1.49012e-11
-9.920e-07,1.49012e-11
-9.840e-07,-0.0005
-9.760e-07,1.49012e-11
-9.680e-07,1.49012e-11
-9.600e-07,0.0005
-9.520e-07,-0.0005
-9.440e-07,-0.0005
-9.360e-07,0.001
-9.280e-07,1.49012e-11
-9.200e-07,1.49012e-11
-9.120e-07,1.49012e-11
-9.040e-07,-0.0005
-8.960e-07,-0.0005
-8.880e-07,0.0005
-8.800e-07,0.001
-8.720e-07,0.0005
-8.640e-07,0.001
-8.560e-07,1.49012e-11
-8.480e-07,0.0005
-8.400e-07,0.001
-8.320e-07,1.49012e-11
-8.240e-07,0.0005
-8.160e-07,1.49012e-11
-8.080e-07,-0.001
-8.000e-07,1.49012e-11
-7.920e-07,0.0005
-7.840e-07,1.49012e-11
-7.760e-07,1.49012e-11
-7.680e-07,1.49012e-11
-7.600e-07,-0.0005
-7.520e-07,1.49012e-11
-7.440e-07,0.0005
-7.360e-07,1.49012e-11
-7.280e-07,0.0005
-7.200e-07,0.0005
-7.120e-07,0.0005
-7.040e-07,0.0005
-6.960e-07,-0.0005
-6.880e-07,1.49012e-11
-6.800e-07,0.0005
-6.720e-07,1.49012e-11
-6.640e-07,-0.001
-6.560e-07,1.49012e-11
-6.480e-07,1.49012e-11
-6.400e-07,-0.001
-6.320e-07,0.0005
-6.240e-07,0.0005
-6.160e-07,0.0005
-6.080e-07,1.49012e-11
-6.000e-07,0.0005
-5.920e-07,0.0005
-5.840e-07,1.49012e-11
-5.760e-07,1.49012e-11
-5.680e-07,0.0005
-5.600e-07,1.49012e-11
-5.520e-07,1.49012e-11
-5.440e-07,0.001
-5.360e-07,0.0005
-5.280e-07,0.0005
-5.200e-07,1.49012e-11
-5.120e-07,0.0005
-5.040e-07,0.0015
-4.960e-07,0.0015
-4.880e-07,0.001
-4.800e-07,0.001
-4.720e-07,0.001
-4.640e-07,0.0015
-4.560e-07,0.001
-4.480e-07,0.001
-4.400e-07,0.0015
-4.320e-07,0.0015
-4.240e-07,0.002
-4.160e-07,0.001
-4.080e-07,0.0025
-4.000e-07,0.002
-3.920e-07,0.0015
-3.840e-07,0.0005
-3.760e-07,0.001
-3.680e-07,0.0005
-3.600e-07,0.0015
-3.520e-07,0.001
-3.440e-07,0.0005
-3.360e-07,1.49012e-11
-3.280e-07,0.0005
-3.200e-07,1.49012e-11
-3.120e-07,-0.001
-3.040e-07,-0.001
-2.960e-07,-0.002
-2.880e-07,-0.0025
-2.800e-07,-0.002
-2.720e-07,-0.0025
-2.640e-07,-0.002
-2.560e-07,-0.0035
-2.480e-07,-0.004
-2.400e-07,-0.005
-2.320e-07,-0.005
-2.240e-07,-0.005
-2.160e-07,-0.0055
-2.080e-07,-0.005
-2.000e-07,-0.0055
-1.920e-07,-0.0055
-1.840e-07,-0.0055
-1.760e-07,-0.0065
-1.680e-07,-0.0065
-1.600e-07,-0.0065
-1.520e-07,-0.0055
-1.440e-07,-0.0045
-1.360e-07,-0.004
-1.280e-07,-0.004
-1.200e-07,-0.003
-1.120e-07,-0.004
-1.040e-07,-0.0025
-9.600e-08,-0.0015
-8.800e-08,-0.0015
-8.000e-08,1.49012e-11
-7.200e-08,0.001
-6.400e-08,0.001
-5.600e-08,0.003
-4.800e-08,0.0035
-4.000e-08,0.004
-3.200e-08,0.0055
-2.400e-08,0.0065
-1.600e-08,0.0075
-8.000e-09,0.0085
-6.121e-20,0.009
8.000e-09,0.0085
1.600e-08,0.0105
2.400e-08,0.0115
3.200e-08,0.011
4.000e-08,0.0115
4.800e-08,0.012
5.600e-08,0.011
6.400e-08,0.012
7.200e-08,0.011
8.000e-08,0.011
8.800e-08,0.0095
9.600e-08,0.0105
1.040e-07,0.0085
1.120e-07,0.008
1.200e-07,0.007
1.280e-07,0.006
1.360e-07,0.005
1.440e-07,0.004
1.520e-07,0.004
1.600e-07,0.002
1.680e-07,0.001
1.760e-07,-0.0015
1.840e-07,-0.0015
1.920e-07,-0.003
2.000e-07,-0.0035
2.080e-07,-0.0055
2.160e-07,-0.006
2.240e-07,-0.008
2.320e-07,-0.0085
2.400e-07,-0.009
2.480e-07,-0.011
2.560e-07,-0.012
2.640e-07,-0.012
2.720e-07,-0.0125
2.800e-07,-0.0125
2.880e-07,-0.0135
2.960e-07,-0.0135
3.040e-07,-0.014
3.120e-07,-0.0135
3.200e-07,-0.0135
3.280e-07,-0.0135
3.360e-07,-0.0135
3.440e-07,-0.013
3.520e-07,-0.012
3.600e-07,-0.0105
3.680e-07,-0.01
3.760e-07,-0.009
3.840e-07,-0.0085
3.920e-07,-0.008
4.000e-07,-0.007
4.080e-07,-0.0055
4.160e-07,-0.004
4.240e-07,-0.0025
4.320e-07,-0.0015
4.400e-07,0.0005
4.480e-07,0.0015
4.560e-07,0.002
4.640e-07,0.0035
4.720e-07,0.0045
4.800e-07,0.0045
4.880e-07,0.0075
4.960e-07,0.0075
5.040e-07,0.0095
5.120e-07,0.01
5.200e-07,0.0105
5.280e-07,0.0115
5.360e-07,0.012
5.440e-07,0.013
5.520e-07,0.013
5.600e-07,0.0135
5.680e-07,0.015
5.760e-07,0.015
5.840e-07,0.015
5.920e-07,0.0155
6.000e-07,0.015
6.080e-07,0.015
6.160e-07,0.0145
6.240e-07,0.015
6.320e-07,0.0135
6.400e-07,0.0125
6.480e-07,0.0125
6.560e-07,0.0125
6.640e-07,0.011
6.720e-07,0.0105
6.800e-07,0.008
6.880e-07,0.0065
6.960e-07,0.006
7.040e-07,0.0045
7.120e-07,0.004
7.200e-07,0.002
7.280e-07,0.0005
7.360e-07,-0.0005
7.440e-07,-0.0025
7.520e-07,-0.004
7.600e-07,-0.0055
7.680e-07,-0.007
7.760e-07,-0.0085
7.840e-07,-0.01
7.920e-07,-0.011
8.000e-07,-0.0115
8.080e-07,-0.0135
8.160e-07,-0.0155
8.240e-07,-0.0165
8.320e-07,-0.0165
8.400e-07,-0.0185
8.480e-07,-0.0185
8.560e-07,-0.0195
8.640e-07,-0.019
8.720e-07,-0.0195
8.800e-07,-0.0195
8.880e-07,-0.0185
8.960e-07,-0.019
9.040e-07,-0.0175
9.120e-07,-0.0175
9.200e-07,-0.016
9.280e-07,-0.015
9.360e-07,-0.014
9.440e-07,-0.0125
9.520e-07,-0.0105
9.600e-07,-0.0085
9.680e-07,-0.006
9.760e-07,-0.0045
9.840e-07,-0.002
9.920e-07,-0.0005
1.000e-06,0.0015
1.008e-06,0.004
