Ultrasound_pressure_Measuerments/3D_aneurysm_channel_scan/raw_csv/CSV18_X09_Y10_Z13.csv

Model,TBS2072
Firmware Version,v1.26.0

Point Format,Y
Horizontal Units,S
Horizontal Scale,1e-06
Sample Interval,8e-09
Filter Frequency,1e+08
Record Length,2000
Gating,0.0% to 100.0%
Probe Attenuation,1
Vertical Units,V
Vertical Offset,0
Vertical Scale,0.01
Label,
TIME,CH1
-6.960e-06,1.49012e-11
-6.952e-06,0.0005
-6.944e-06,0.0005
-6.936e-06,0.0005
-6.928e-06,0.0005
-6.920e-06,-0.0005
-6.912e-06,1.49012e-11
-6.904e-06,1.49012e-11
-6.896e-06,1.49012e-11
-6.888e-06,0.0005
-6.880e-06,1.49012e-11
-6.872e-06,1.49012e-11
-6.864e-06,1.49012e-11
-6.856e-06,1.49012e-11
-6.848e-06,1.49012e-11
-6.840e-06,1.49012e-11
-6.832e-06,1.49012e-11
-6.824e-06,0.0005
-6.816e-06,1.49012e-11
-6.808e-06,0.0005
-6.800e-06,1.49012e-11
-6.792e-06,1.49012e-11
-6.784e-06,-0.0005
-6.776e-06,1.49012e-11
-6.768e-06,1.49012e-11
-6.760e-06,1.49012e-11
-6.752e-06,1.49012e-11
-6.744e-06,-0.0005
-6.736e-06,1.49012e-11
-6.728e-06,-0.0005
-6.720e-06,-0.0005
-6.712e-06,1.49012e-11
-6.704e-06,1.49012e-11
-6.696e-06,-0.0005
-6.688e-06,-0.001
-6.680e-06,1.49012e-11
-6.672e-06,1.49012e-11
-6.664e-06,-0.0005
-6.656e-06,1.49012e-11
-6.648e-06,1.49012e-11
-6.640e-06,1.49012e-11
-6.632e-06,0.0005
-6.624e-06,1.49012e-11
-6.616e-06,1.49012e-11
-6.608e-06,-0.0005
-6.600e-06,-0.0005
-6.592e-06,0.001
-6.584e-06,-0.0005
-6.576e-06,1.49012e-11
-6.568e-06,1.49012e-11
-6.560e-06,1.49012e-11
-6.552e-06,0.0005
-6.544e-06,1.49012e-11
-6.536e-06,0.0005
-6.528e-06,1.49012e-11
-6.520e-06,1.49012e-11
-6.512e-06,0.0005
-6.504e-06,1.49012e-11
-6.496e-06,0.0005
-6.488e-06,1.49012e-11
-6.480e-06,0.0005
-6.472e-06,0.0005
-6.464e-06,1.49012e-11
-6.456e-06,1.49012e-11
-6.448e-06,-0.0005
-6.440e-06,1.49012e-11
-6.432e-06,1.49012e-11
-6.424e-06,1.49012e-11
-6.416e-06,0.0005
-6.408e-06,1.49012e-11
-6.400e-06,0.0005
-6.392e-06,0.0005
-6.384e-06,1.49012e-11
-6.376e-06,1.49012e-11
-6.368e-06,1.49012e-11
-6.360e-06,0.0005
-6.352e-06,0.001
-6.344e-06,1.49012e-11
-6.336e-06,1.49012e-11
-6.328e-06,1.49012e-11
-6.320e-06,0.0005
-6.312e-06,1.49012e-11
-6.304e-06,1.49012e-11
-6.296e-06,1.49012e-11
-6.288e-06,1.49012e-11
-6.280e-06,-0.0005
-6.272e-06,1.49012e-11
-6.264e-06,0.0005
-6.256e-06,0.0005
-6.248e-06,0.0005
-6.240e-06,1.49012e-11
-6.232e-06,0.001
-6.224e-06,1.49012e-11
-6.216e-06,1.49012e-11
-6.208e-06,0.0005
-6.200e-06,0.0005
-6.192e-06,0.001
-6.184e-06,0.0005
-6.176e-06,0.0005
-6.168e-06,1.49012e-11
-6.160e-06,1.49012e-11
-6.152e-06,0.0005
-6.144e-06,0.0005
-6.136e-06,0.001
-6.128e-06,-0.001
-6.120e-06,0.0005
-6.112e-06,1.49012e-11
-6.104e-06,0.0005
-6.096e-06,-0.0005
-6.088e-06,0.0005
-6.080e-06,1.49012e-11
-6.072e-06,1.49012e-11
-6.064e-06,1.49012e-11
-6.056e-06,-0.0005
-6.048e-06,1.49012e-11
-6.040e-06,1.49012e-11
-6.032e-06,1.49012e-11
-6.024e-06,1.49012e-11
-6.016e-06,-0.001
-6.008e-06,1.49012e-11
-6.000e-06,0.0005
-5.992e-06,1.49012e-11
-5.984e-06,1.49012e-11
-5.976e-06,1.49012e-11
-5.968e-06,0.0005
-5.960e-06,0.0005
-5.952e-06,0.0005
-5.944e-06,-0.0005
-5.936e-06,-0.0005
-5.928e-06,1.49012e-11
-5.920e-06,1.49012e-11
-5.912e-06,-0.0005
-5.904e-06,0.0005
-5.896e-06,0.0005
-5.888e-06,1.49012e-11
-5.880e-06,1.49012e-11
-5.872e-06,0.0005
-5.864e-06,1.49012e-11
-5.856e-06,0.001
-5.848e-06,0.0005
-5.840e-06,1.49012e-11
-5.832e-06,0.001
-5.824e-06,-0.0005
-5.816e-06,1.49012e-11
-5.808e-06,0.0005
-5.800e-06,1.49012e-11
-5.792e-06,1.49012e-11
-5.784e-06,1.49012e-11
-5.776e-06,0.001
-5.768e-06,0.0005
-5.760e-06,1.49012e-11
-5.752e-06,0.0005
-5.744e-06,0.001
-5.736e-06,0.0005
-5.728e-06,0.0005
-5.720e-06,1.49012e-11
-5.712e-06,0.001
-5.704e-06,0.0005
-5.696e-06,0.0005
-5.688e-06,1.49012e-11
-5.680e-06,0.0005
-5.672e-06,1.49012e-11
-5.664e-06,1.49012e-11
-5.656e-06,0.0005
-5.648e-06,0.001
-5.640e-06,0.001
-5.632e-06,0.0005
-5.624e-06,1.49012e-11
-5.616e-06,0.0005
-5.608e-06,0.001
-5.600e-06,0.0005
-5.592e-06,0.0005
-5.584e-06,0.0005
-5.576e-06,1.49012e-11
-5.568e-06,1.49012e-11
-5.560e-06,1.49012e-11
-5.552e-06,0.0005
-5.544e-06,0.0005
-5.536e-06,0.0005
-5.528e-06,1.49012e-11
-5.520e-06,0.0005
-5.512e-06,1.49012e-11
-5.504e-06,1.49012e-11
-5.496e-06,1.49012e-11
-5.488e-06,1.49012e-11
-5.480e-06,0.0005
-5.472e-06,0.0005
-5.464e-06,-0.0005
-5.456e-06,1.49012e-11
-5.448e-06,1.49012e-11
-5.440e-06,0.0005
-5.432e-06,1.49012e-11
-5.424e-06,-0.0005
-5.416e-06,1.49012e-11
-5.408e-06,-0.0005
-5.400e-06,0.001
-5.392e-06,0.0005
-5.384e-06,1.49012e-11
-5.376e-06,1.49012e-11
-5.368e-06,0.001
-5.360e-06,0.0005
-5.352e-06,-0.0005
-5.344e-06,0.001
-5.336e-06,0.0005
-5.328e-06,1.49012e-11
-5.320e-06,0.0005
-5.312e-06,1.49012e-11
-5.304e-06,1.49012e-11
-5.296e-06,0.0005
-5.288e-06,1.49012e-11
-5.280e-06,-0.0005
-5.272e-06,0.0005
-5.264e-06,1.49012e-11
-5.256e-06,0.001
-5.248e-06,0.0005
-5.240e-06,0.0005
-5.232e-06,0.0005
-5.224e-06,1.49012e-11
-5.216e-06,0.001
-5.208e-06,-0.0005
-5.200e-06,1.49012e-11
-5.192e-06,0.0005
-5.184e-06,0.001
-5.176e-06,0.001
-5.168e-06,0.001
-5.160e-06,0.0005
-5.152e-06,0.0005
-5.144e-06,0.0005
-5.136e-06,0.001
-5.128e-06,0.0005
-5.120e-06,0.0005
-5.112e-06,0.0005
-5.104e-06,0.0005
-5.096e-06,0.0005
-5.088e-06,1.49012e-11
-5.080e-06,0.001
-5.072e-06,0.0005
-5.064e-06,0.0005
-5.056e-06,0.0005
-5.048e-06,-0.0005
-5.040e-06,0.001
-5.032e-06,0.0005
-5.024e-06,0.0005
-5.016e-06,0.001
-5.008e-06,1.49012e-11
-5.000e-06,0.0005
-4.992e-06,0.0005
-4.984e-06,0.001
-4.976e-06,0.001
-4.968e-06,1.49012e-11
-4.960e-06,1.49012e-11
-4.952e-06,1.49012e-11
-4.944e-06,0.0005
-4.936e-06,1.49012e-11
-4.928e-06,0.0005
-4.920e-06,0.0005
-4.912e-06,0.001
-4.904e-06,1.49012e-11
-4.896e-06,1.49012e-11
-4.888e-06,1.49012e-11
-4.880e-06,1.49012e-11
-4.872e-06,0.0005
-4.864e-06,0.001
-4.856e-06,0.001
-4.848e-06,1.49012e-11
-4.840e-06,0.001
-4.832e-06,1.49012e-11
-4.824e-06,1.49012e-11
-4.816e-06,0.0005
-4.808e-06,1.49012e-11
-4.800e-06,0.0005
-4.792e-06,0.0005
-4.784e-06,1.49012e-11
-4.776e-06,0.001
-4.768e-06,0.001
-4.760e-06,0.0005
-4.752e-06,1.49012e-11
-4.744e-06,0.001
-4.736e-06,0.001
-4.728e-06,1.49012e-11
-4.720e-06,1.49012e-11
-4.712e-06,0.0005
-4.704e-06,0.0005
-4.696e-06,0.001
-4.688e-06,0.0005
-4.680e-06,1.49012e-11
-4.672e-06,0.0005
-4.664e-06,0.001
-4.656e-06,0.0005
-4.648e-06,0.001
-4.640e-06,1.49012e-11
-4.632e-06,0.0005
-4.624e-06,1.49012e-11
-4.616e-06,1.49012e-11
-4.608e-06,1.49012e-11
-4.600e-06,0.0005
-4.592e-06,1.49012e-11
-4.584e-06,0.0005
-4.576e-06,0.0015
-4.568e-06,0.0015
-4.560e-06,0.0005
-4.552e-06,0.0005
-4.544e-06,0.001
-4.536e-06,0.001
-4.528e-06,1.49012e-11
-4.520e-06,0.0005
-4.512e-06,0.0005
-4.504e-06,0.0015
-4.496e-06,0.0005
-4.488e-06,0.0005
-4.480e-06,0.0005
-4.472e-06,1.49012e-11
-4.464e-06,1.49012e-11
-4.456e-06,0.001
-4.448e-06,0.0005
-4.440e-06,0.001
-4.432e-06,0.0015
-4.424e-06,0.0005
-4.416e-06,1.49012e-11
-4.408e-06,1.49012e-11
-4.400e-06,0.001
-4.392e-06,0.0005
-4.384e-06,1.49012e-11
-4.376e-06,0.0005
-4.368e-06,0.0005
-4.360e-06,1.49012e-11
-4.352e-06,0.0005
-4.344e-06,1.49012e-11
-4.336e-06,1.49012e-11
-4.328e-06,1.49012e-11
-4.320e-06,1.49012e-11
-4.312e-06,0.001
-4.304e-06,0.0005
-4.296e-06,1.49012e-11
-4.288e-06,-0.0005
-4.280e-06,1.49012e-11
-4.272e-06,1.49012e-11
-4.264e-06,1.49012e-11
-4.256e-06,0.0005
-4.248e-06,0.0005
-4.240e-06,0.001
-4.232e-06,0.001
-4.224e-06,0.0005
-4.216e-06,1.49012e-11
-4.208e-06,0.0005
-4.200e-06,1.49012e-11
-4.192e-06,0.0005
-4.184e-06,1.49012e-11
-4.176e-06,1.49012e-11
-4.168e-06,1.49012e-11
-4.160e-06,0.0005
-4.152e-06,1.49012e-11
-4.144e-06,0.0005
-4.136e-06,0.0005
-4.128e-06,1.49012e-11
-4.120e-06,0.0005
-4.112e-06,1.49012e-11
-4.104e-06,0.0005
-4.096e-06,0.0015
-4.088e-06,0.0015
-4.080e-06,0.0005
-4.072e-06,1.49012e-11
-4.064e-06,0.001
-4.056e-06,0.001
-4.048e-06,0.001
-4.040e-06,1.49012e-11
-4.032e-06,1.49012e-11
-4.024e-06,0.0005
-4.016e-06,0.001
-4.008e-06,0.0005
-4.000e-06,0.001
-3.992e-06,0.0005
-3.984e-06,0.0005
-3.976e-06,0.0005
-3.968e-06,0.001
-3.960e-06,0.001
-3.952e-06,0.001
-3.944e-06,1.49012e-11
-3.936e-06,-0.0005
-3.928e-06,0.001
-3.920e-06,1.49012e-11
-3.912e-06,0.001
-3.904e-06,0.0005
-3.896e-06,1.49012e-11
-3.888e-06,1.49012e-11
-3.880e-06,1.49012e-11
-3.872e-06,1.49012e-11
-3.864e-06,1.49012e-11
-3.856e-06,0.0005
-3.848e-06,0.0005
-3.840e-06,1.49012e-11
-3.832e-06,-0.0005
-3.824e-06,-0.0005
-3.816e-06,1.49012e-11
-3.808e-06,1.49012e-11
-3.800e-06,0.0005
-3.792e-06,0.0005
-3.784e-06,-0.0005
-3.776e-06,0.0005
-3.768e-06,0.0005
-3.760e-06,0.0005
-3.752e-06,1.49012e-11
-3.744e-06,1.49012e-11
-3.736e-06,1.49012e-11
-3.728e-06,1.49012e-11
-3.720e-06,1.49012e-11
-3.712e-06,1.49012e-11
-3.704e-06,1.49012e-11
-3.696e-06,1.49012e-11
-3.688e-06,0.001
-3.680e-06,1.49012e-11
-3.672e-06,0.001
-3.664e-06,0.0005
-3.656e-06,0.0005
-3.648e-06,1.49012e-11
-3.640e-06,-0.0005
-3.632e-06,1.49012e-11
-3.624e-06,0.0005
-3.616e-06,0.0005
-3.608e-06,0.0005
-3.600e-06,0.0005
-3.592e-06,0.001
-3.584e-06,0.0005
-3.576e-06,0.0005
-3.568e-06,1.49012e-11
-3.560e-06,0.0005
-3.552e-06,0.0005
-3.544e-06,0.0005
-3.536e-06,1.49012e-11
-3.528e-06,0.0005
-3.520e-06,0.0005
-3.512e-06,0.0005
-3.504e-06,0.001
-3.496e-06,0.001
-3.488e-06,-0.0005
-3.480e-06,0.0005
-3.472e-06,-0.0005
-3.464e-06,0.0005
-3.456e-06,0.0005
-3.448e-06,0.001
-3.440e-06,0.001
-3.432e-06,0.001
-3.424e-06,0.0005
-3.416e-06,1.49012e-11
-3.408e-06,0.0005
-3.400e-06,0.001
-3.392e-06,1.49012e-11
-3.384e-06,0.0005
-3.376e-06,0.0005
-3.368e-06,0.001
-3.360e-06,0.0015
-3.352e-06,0.0015
-3.344e-06,0.0005
-3.336e-06,0.0005
-3.328e-06,0.001
-3.320e-06,0.0005
-3.312e-06,0.001
-3.304e-06,0.0005
-3.296e-06,0.001
-3.288e-06,0.0005
-3.280e-06,1.49012e-11
-3.272e-06,-0.0005
-3.264e-06,-0.0005
-3.256e-06,1.49012e-11
-3.248e-06,0.0005
-3.240e-06,1.49012e-11
-3.232e-06,1.49012e-11
-3.224e-06,0.0005
-3.216e-06,0.0005
-3.208e-06,1.49012e-11
-3.200e-06,1.49012e-11
-3.192e-06,0.0005
-3.184e-06,0.0005
-3.176e-06,0.0005
-3.168e-06,1.49012e-11
-3.160e-06,1.49012e-11
-3.152e-06,0.001
-3.144e-06,0.0005
-3.136e-06,0.0005
-3.128e-06,1.49012e-11
-3.120e-06,-0.0005
-3.112e-06,0.0005
-3.104e-06,1.49012e-11
-3.096e-06,1.49012e-11
-3.088e-06,0.001
-3.080e-06,0.0005
-3.072e-06,0.0005
-3.064e-06,0.001
-3.056e-06,0.0005
-3.048e-06,1.49012e-11
-3.040e-06,1.49012e-11
-3.032e-06,0.0005
-3.024e-06,0.0005
-3.016e-06,0.001
-3.008e-06,0.0005
-3.000e-06,1.49012e-11
-2.992e-06,0.0015
-2.984e-06,0.001
-2.976e-06,0.0005
-2.968e-06,-0.0005
-2.960e-06,0.0005
-2.952e-06,0.0005
-2.944e-06,0.0005
-2.936e-06,0.0005
-2.928e-06,1.49012e-11
-2.920e-06,0.001
-2.912e-06,1.49012e-11
-2.904e-06,-0.0005
-2.896e-06,0.0005
-2.888e-06,1.49012e-11
-2.880e-06,0.0005
-2.872e-06,-0.0005
-2.864e-06,0.0005
-2.856e-06,0.0005
-2.848e-06,0.0005
-2.840e-06,0.0015
-2.832e-06,0.0005
-2.824e-06,0.0005
-2.816e-06,0.0005
-2.808e-06,0.0015
-2.800e-06,0.0005
-2.792e-06,0.001
-2.784e-06,0.0005
-2.776e-06,1.49012e-11
-2.768e-06,-0.0005
-2.760e-06,1.49012e-11
-2.752e-06,1.49012e-11
-2.744e-06,1.49012e-11
-2.736e-06,-0.0005
-2.728e-06,0.0015
-2.720e-06,1.49012e-11
-2.712e-06,0.0005
-2.704e-06,1.49012e-11
-2.696e-06,1.49012e-11
-2.688e-06,1.49012e-11
-2.680e-06,1.49012e-11
-2.672e-06,1.49012e-11
-2.664e-06,-0.0005
-2.656e-06,0.0005
-2.648e-06,0.0005
-2.640e-06,0.0005
-2.632e-06,0.0005
-2.624e-06,0.0005
-2.616e-06,0.001
-2.608e-06,0.0005
-2.600e-06,0.001
-2.592e-06,0.001
-2.584e-06,0.0005
-2.576e-06,0.0005
-2.568e-06,0.0005
-2.560e-06,1.49012e-11
-2.552e-06,-0.0005
-2.544e-06,0.001
-2.536e-06,1.49012e-11
-2.528e-06,1.49012e-11
-2.520e-06,0.0005
-2.512e-06,-0.0005
-2.504e-06,0.001
-2.496e-06,0.001
-2.488e-06,0.0005
-2.480e-06,1.49012e-11
-2.472e-06,0.001
-2.464e-06,0.0005
-2.456e-06,0.001
-2.448e-06,0.0005
-2.440e-06,0.0005
-2.432e-06,0.0005
-2.424e-06,-0.0005
-2.416e-06,0.0005
-2.408e-06,0.0005
-2.400e-06,1.49012e-11
-2.392e-06,0.0005
-2.384e-06,1.49012e-11
-2.376e-06,0.001
-2.368e-06,0.001
-2.360e-06,0.001
-2.352e-06,0.0005
-2.344e-06,0.001
-2.336e-06,1.49012e-11
-2.328e-06,0.001
-2.320e-06,0.001
-2.312e-06,0.0005
-2.304e-06,-0.0005
-2.296e-06,0.0005
-2.288e-06,-0.0005
-2.280e-06,1.49012e-11
-2.272e-06,0.001
-2.264e-06,1.49012e-11
-2.256e-06,0.0015
-2.248e-06,1.49012e-11
-2.240e-06,0.001
-2.232e-06,0.0005
-2.224e-06,1.49012e-11
-2.216e-06,0.0005
-2.208e-06,0.0005
-2.200e-06,-0.0005
-2.192e-06,1.49012e-11
-2.184e-06,0.001
-2.176e-06,1.49012e-11
-2.168e-06,1.49012e-11
-2.160e-06,0.0015
-2.152e-06,1.49012e-11
-2.144e-06,0.0005
-2.136e-06,0.0005
-2.128e-06,1.49012e-11
-2.120e-06,0.0005
-2.112e-06,0.001
-2.104e-06,1.49012e-11
-2.096e-06,0.0005
-2.088e-06,0.0005
-2.080e-06,0.0005
-2.072e-06,-0.0005
-2.064e-06,1.49012e-11
-2.056e-06,1.49012e-11
-2.048e-06,0.0005
-2.040e-06,1.49012e-11
-2.032e-06,0.0005
-2.024e-06,0.0005
-2.016e-06,0.0005
-2.008e-06,1.49012e-11
-2.000e-06,1.49012e-11
-1.992e-06,0.001
-1.984e-06,0.0005
-1.976e-06,0.0005
-1.968e-06,0.0005
-1.960e-06,0.001
-1.952e-06,0.001
-1.944e-06,0.0005
-1.936e-06,0.0005
-1.928e-06,0.001
-1.920e-06,0.0005
-1.912e-06,0.0005
-1.904e-06,0.0005
-1.896e-06,0.0005
-1.888e-06,0.0015
-1.880e-06,0.001
-1.872e-06,0.001
-1.864e-06,0.001
-1.856e-06,1.49012e-11
-1.848e-06,1.49012e-11
-1.840e-06,1.49012e-11
-1.832e-06,-0.0005
-1.824e-06,0.0015
-1.816e-06,0.0005
-1.808e-06,0.001
-1.800e-06,0.001
-1.792e-06,0.0005
-1.784e-06,1.49012e-11
-1.776e-06,1.49012e-11
-1.768e-06,0.001
-1.760e-06,0.0005
-1.752e-06,1.49012e-11
-1.744e-06,0.0005
-1.736e-06,0.001
-1.728e-06,1.49012e-11
-1.720e-06,1.49012e-11
-1.712e-06,0.0005
-1.704e-06,1.49012e-11
-1.696e-06,0.0005
-1.688e-06,0.0005
-1.680e-06,0.0005
-1.672e-06,0.0005
-1.664e-06,0.0005
-1.656e-06,0.0005
-1.648e-06,1.49012e-11
-1.640e-06,1.49012e-11
-1.632e-06,1.49012e-11
-1.624e-06,0.0005
-1.616e-06,0.0005
-1.608e-06,1.49012e-11
-1.600e-06,1.49012e-11
-1.592e-06,0.0005
-1.584e-06,0.0005
-1.576e-06,-0.0005
-1.568e-06,1.49012e-11
-1.560e-06,-0.0005
-1.552e-06,0.001
-1.544e-06,0.0005
-1.536e-06,1.49012e-11
-1.528e-06,1.49012e-11
-1.520e-06,1.49012e-11
-1.512e-06,0.0005
-1.504e-06,0.0005
-1.496e-06,1.49012e-11
-1.488e-06,1.49012e-11
-1.480e-06,1.49012e-11
-1.472e-06,1.49012e-11
-1.464e-06,0.001
-1.456e-06,0.0005
-1.448e-06,1.49012e-11
-1.440e-06,0.0005
-1.432e-06,0.0015
-1.424e-06,0.0005
-1.416e-06,0.001
-1.408e-06,0.001
-1.400e-06,0.001
-1.392e-06,0.0005
-1.384e-06,0.001
-1.376e-06,0.001
-1.368e-06,1.49012e-11
-1.360e-06,0.0005
-1.352e-06,0.002
-1.344e-06,0.0005
-1.336e-06,0.001
-1.328e-06,0.0005
-1.320e-06,0.0015
-1.312e-06,0.001
-1.304e-06,0.001
-1.296e-06,0.001
-1.288e-06,0.001
-1.280e-06,0.0015
-1.272e-06,0.0005
-1.264e-06,0.001
-1.256e-06,0.0005
-1.248e-06,0.0005
-1.240e-06,0.0005
-1.232e-06,0.001
-1.224e-06,0.0005
-1.216e-06,0.001
-1.208e-06,0.001
-1.200e-06,0.0005
-1.192e-06,0.0005
-1.184e-06,0.001
-1.176e-06,0.0005
-1.168e-06,0.001
-1.160e-06,1.49012e-11
-1.152e-06,0.001
-1.144e-06,0.0005
-1.136e-06,0.0005
-1.128e-06,-0.0005
-1.120e-06,0.0005
-1.112e-06,0.0005
-1.104e-06,0.001
-1.096e-06,0.0005
-1.088e-06,0.0005
-1.080e-06,0.0005
-1.072e-06,0.001
-1.064e-06,0.001
-1.056e-06,0.001
-1.048e-06,0.001
-1.040e-06,0.001
-1.032e-06,0.0015
-1.024e-06,0.001
-1.016e-06,0.0005
-1.008e-06,0.0005
-1.000e-06,0.0005
-9.920e-07,0.001
-9.840e-07,0.0005
-9.760e-07,0.001
-9.680e-07,0.0005
-9.600e-07,0.001
-9.520e-07,1.49012e-11
-9.440e-07,1.49012e-11
-9.360e-07,0.001
-9.280e-07,0.0005
-9.200e-07,0.0015
-9.120e-07,0.001
-9.040e-07,0.001
-8.960e-07,0.0015
-8.880e-07,0.0015
-8.800e-07,0.0005
-8.720e-07,0.001
-8.640e-07,0.002
-8.560e-07,0.002
-8.480e-07,0.0025
-8.400e-07,0.0025
-8.320e-07,0.0025
-8.240e-07,0.002
-8.160e-07,0.0025
-8.080e-07,0.0025
-8.000e-07,0.003
-7.920e-07,0.002
-7.840e-07,0.0025
-7.760e-07,0.003
-7.680e-07,0.0025
-7.600e-07,0.0015
-7.520e-07,0.0025
-7.440e-07,0.0025
-7.360e-07,0.0015
-7.280e-07,0.002
-7.200e-07,0.0015
-7.120e-07,1.49012e-11
-7.040e-07,1.49012e-11
-6.960e-07,-0.0005
-6.880e-07,-0.0005
-6.800e-07,-0.0015
-6.720e-07,-0.0015
-6.640e-07,-0.003
-6.560e-07,-0.004
-6.480e-07,-0.004
-6.400e-07,-0.004
-6.320e-07,-0.005
-6.240e-07,-0.0055
-6.160e-07,-0.006
-6.080e-07,-0.0075
-6.000e-07,-0.0065
-5.920e-07,-0.0085
-5.840e-07,-0.007
-5.760e-07,-0.0075
-5.680e-07,-0.0075
-5.600e-07,-0.007
-5.520e-07,-0.008
-5.440e-07,-0.007
-5.360e-07,-0.007
-5.280e-07,-0.006
-5.200e-07,-0.0055
-5.120e-07,-0.0045
-5.040e-07,-0.004
-4.960e-07,-0.003
-4.880e-07,-0.003
-4.800e-07,-0.0005
-4.720e-07,0.0005
-4.640e-07,0.0005
-4.560e-07,0.0025
-4.480e-07,0.0035
-4.400e-07,0.006
-4.320e-07,0.007
-4.240e-07,0.008
-4.160e-07,0.009
-4.080e-07,0.011
-4.000e-07,0.012
-3.920e-07,0.0135
-3.840e-07,0.014
-3.760e-07,0.0155
-3.680e-07,0.016
-3.600e-07,0.016
-3.520e-07,0.0165
-3.440e-07,0.017
-3.360e-07,0.0165
-3.280e-07,0.0165
-3.200e-07,0.015
-3.120e-07,0.0145
-3.040e-07,0.014
-2.960e-07,0.013
-2.880e-07,0.0125
-2.800e-07,0.0105
-2.720e-07,0.008
-2.640e-07,0.0075
-2.560e-07,0.0055
-2.480e-07,0.003
-2.400e-07,0.001
-2.320e-07,-0.001
-2.240e-07,-0.0035
-2.160e-07,-0.005
-2.080e-07,-0.007
-2.000e-07,-0.0085
-1.920e-07,-0.011
-1.840e-07,-0.012
-1.760e-07,-0.014
-1.680e-07,-0.016
-1.600e-07,-0.017
-1.520e-07,-0.0185
-1.440e-07,-0.02
-1.360e-07,-0.021
-1.280e-07,-0.0215
-1.200e-07,-0.022
-1.120e-07,-0.0225
-1.040e-07,-0.0225
-9.600e-08,-0.022
-8.800e-08,-0.0215
-8.000e-08,-0.0205
-7.200e-08,-0.0205
-6.400e-08,-0.019
-5.600e-08,-0.0175
-4.800e-08,-0.016
-4.000e-08,-0.014
-3.200e-08,-0.012
-2.400e-08,-0.0095
-1.600e-08,-0.0075
-8.000e-09,-0.0055
-6.121e-20,-0.003
8.000e-09,-0.001
1.600e-08,0.0015
2.400e-08,0.004
3.200e-08,0.007
4.000e-08,0.0095
4.800e-08,0.012
5.600e-08,0.0135
6.400e-08,0.016
7.200e-08,0.017
8.000e-08,0.0195
8.800e-08,0.021
9.600e-08,0.023
1.040e-07,0.0245
1.120e-07,0.0255
1.200e-07,0.0255
1.280e-07,0.0265
1.360e-07,0.0275
1.440e-07,0.0275
1.520e-07,0.0265
1.600e-07,0.0265
1.680e-07,0.025
1.760e-07,0.025
1.840e-07,0.0245
1.920e-07,0.0225
2.000e-07,0.021
2.080e-07,0.019
2.160e-07,0.0175
2.240e-07,0.016
2.320e-07,0.0135
2.400e-07,0.011
2.480e-07,0.009
2.560e-07,0.006
2.640e-07,0.004
2.720e-07,0.0015
2.800e-07,-0.001
2.880e-07,-0.003
2.960e-07,-0.006
3.040e-07,-0.0085
3.120e-07,-0.011
3.200e-07,-0.013
3.280e-07,-0.0155
3.360e-07,-0.018
3.440e-07,-0.0195
3.520e-07,-0.0215
3.600e-07,-0.023
3.680e-07,-0.025
3.760e-07,-0.0265
3.840e-07,-0.027
3.920e-07,-0.0275
4.000e-07,-0.0285
4.080e-07,-0.03
4.160e-07,-0.029
4.240e-07,-0.029
4.320e-07,-0.029
4.400e-07,-0.028
4.480e-07,-0.028
4.560e-07,-0.026
4.640e-07,-0.025
4.720e-07,-0.0245
4.800e-07,-0.0215
4.880e-07,-0.019
4.960e-07,-0.017
5.040e-07,-0.014
5.120e-07,-0.012
5.200e-07,-0.0085
5.280e-07,-0.006
5.360e-07,-0.0025
5.440e-07,0.0005
5.520e-07,0.003
5.600e-07,0.006
5.680e-07,0.0095
5.760e-07,0.0125
5.840e-07,0.015
5.920e-07,0.0195
6.000e-07,0.022
6.080e-07,0.024
6.160e-07,0.026
6.240e-07,0.0285
6.320e-07,0.0315
6.400e-07,0.0325
6.480e-07,0.0335
6.560e-07,0.035
6.640e-07,0.0345
6.720e-07,0.036
6.800e-07,0.035
6.880e-07,0.035
6.960e-07,0.034
7.040e-07,0.0315
7.120e-07,0.0305
7.200e-07,0.029
7.280e-07,0.0275
7.360e-07,0.025
7.440e-07,0.0225
7.520e-07,0.019
7.600e-07,0.0165
7.680e-07,0.0135
7.760e-07,0.01
7.840e-07,0.0065
7.920e-07,0.003
8.000e-07,-0.0015
8.080e-07,-0.0035
8.160e-07,-0.0075
8.240e-07,-0.01
8.320e-07,-0.014
8.400e-07,-0.017
8.480e-07,-0.0205
8.560e-07,-0.023
8.640e-07,-0.0245
8.720e-07,-0.027
8.800e-07,-0.029
8.880e-07,-0.032
8.960e-07,-0.032
9.040e-07,-0.0325
9.120e-07,-0.0345
9.200e-07,-0.0345
9.280e-07,-0.0345
9.360e-07,-0.0345
9.440e-07,-0.034
9.520e-07,-0.0325
9.600e-07,-0.0315
9.680e-07,-0.0305
9.760e-07,-0.0285
9.840e-07,-0.0265
9.920e-07,-0.024
1.000e-06,-0.0225
1.008e-06,-0.019
1.016e-06,-0.0165
1.024e-06,-0.014
1.032e-06,-0.0105
1.040e-06,-0.0085
1.048e-06,-0.005
1.056e-06,-0.0025
1.064e-06,1.49012e-11
1.072e-06,0.0025
1.080e-06,0.007
1.088e-06,0.009
1.096e-06,0.0115
1.104e-06,0.014
1.112e-06,0.017
1.120e-06,0.0185
1.128e-06,0.0215
1.136e-06,0.0225
1.144e-06,0.0245
1.152e-06,0.0265
1.160e-06,0.0275
1.168e-06,0.0285
1.176e-06,0.0295
1.184e-06,0.0305
1.192e-06,0.031
1.200e-06,0.0305
1.208e-06,0.0305
1.216e-06,0.0305
1.224e-06,0.0305
1.232e-06,0.0305
1.240e-06,0.029
1.248e-06,0.028
1.256e-06,0.028
1.264e-06,0.0265
1.272e-06,0.025
1.280e-06,0.023
1.288e-06,0.0215
1.296e-06,0.0195
1.304e-06,0.0175
1.312e-06,0.0155
1.320e-06,0.013
1.328e-06,0.0105
1.336e-06,0.0075
