data/hydrophone_acoustic_pressure/3D_aneurysm_channel_scan/raw_csv/CSV10_X07_Y09_Z13.csv

Model,TBS2072
Firmware Version,v1.26.0

Point Format,Y
Horizontal Units,S
Horizontal Scale,1e-06
Sample Interval,8e-09
Filter Frequency,1e+08
Record Length,2000
Gating,0.0% to 100.0%
Probe Attenuation,1
Vertical Units,V
Vertical Offset,0
Vertical Scale,0.01
Label,
TIME,CH1
-6.960e-06,0.0005
-6.952e-06,1.49012e-11
-6.944e-06,0.001
-6.936e-06,0.0005
-6.928e-06,0.0005
-6.920e-06,1.49012e-11
-6.912e-06,0.0015
-6.904e-06,1.49012e-11
-6.896e-06,-0.0005
-6.888e-06,0.0005
-6.880e-06,1.49012e-11
-6.872e-06,-0.0005
-6.864e-06,0.0005
-6.856e-06,0.0005
-6.848e-06,-0.0005
-6.840e-06,1.49012e-11
-6.832e-06,0.0005
-6.824e-06,1.49012e-11
-6.816e-06,0.0005
-6.808e-06,0.001
-6.800e-06,0.0005
-6.792e-06,0.0005
-6.784e-06,1.49012e-11
-6.776e-06,1.49012e-11
-6.768e-06,0.0005
-6.760e-06,0.0005
-6.752e-06,0.0005
-6.744e-06,0.0005
-6.736e-06,1.49012e-11
-6.728e-06,-0.0005
-6.720e-06,-0.0005
-6.712e-06,1.49012e-11
-6.704e-06,0.0005
-6.696e-06,1.49012e-11
-6.688e-06,1.49012e-11
-6.680e-06,1.49012e-11
-6.672e-06,0.0005
-6.664e-06,-0.001
-6.656e-06,1.49012e-11
-6.648e-06,1.49012e-11
-6.640e-06,0.0005
-6.632e-06,1.49012e-11
-6.624e-06,0.001
-6.616e-06,0.001
-6.608e-06,1.49012e-11
-6.600e-06,0.001
-6.592e-06,1.49012e-11
-6.584e-06,0.0005
-6.576e-06,0.0015
-6.568e-06,0.001
-6.560e-06,0.0005
-6.552e-06,1.49012e-11
-6.544e-06,1.49012e-11
-6.536e-06,0.0005
-6.528e-06,1.49012e-11
-6.520e-06,0.0005
-6.512e-06,0.0005
-6.504e-06,1.49012e-11
-6.496e-06,1.49012e-11
-6.488e-06,0.0015
-6.480e-06,0.001
-6.472e-06,0.0005
-6.464e-06,0.0005
-6.456e-06,0.0005
-6.448e-06,1.49012e-11
-6.440e-06,1.49012e-11
-6.432e-06,1.49012e-11
-6.424e-06,0.0005
-6.416e-06,0.001
-6.408e-06,1.49012e-11
-6.400e-06,1.49012e-11
-6.392e-06,0.001
-6.384e-06,0.001
-6.376e-06,-0.0005
-6.368e-06,1.49012e-11
-6.360e-06,0.0005
-6.352e-06,-0.0005
-6.344e-06,1.49012e-11
-6.336e-06,1.49012e-11
-6.328e-06,1.49012e-11
-6.320e-06,1.49012e-11
-6.312e-06,1.49012e-11
-6.304e-06,0.001
-6.296e-06,0.0005
-6.288e-06,0.0005
-6.280e-06,1.49012e-11
-6.272e-06,1.49012e-11
-6.264e-06,0.001
-6.256e-06,0.0005
-6.248e-06,-0.0005
-6.240e-06,-0.0005
-6.232e-06,1.49012e-11
-6.224e-06,0.0005
-6.216e-06,0.0005
-6.208e-06,1.49012e-11
-6.200e-06,0.0005
-6.192e-06,1.49012e-11
-6.184e-06,0.0005
-6.176e-06,0.0005
-6.168e-06,0.0005
-6.160e-06,1.49012e-11
-6.152e-06,-0.0005
-6.144e-06,0.0005
-6.136e-06,-0.0005
-6.128e-06,1.49012e-11
-6.120e-06,0.001
-6.112e-06,0.001
-6.104e-06,1.49012e-11
-6.096e-06,1.49012e-11
-6.088e-06,0.0005
-6.080e-06,1.49012e-11
-6.072e-06,0.0005
-6.064e-06,0.0005
-6.056e-06,0.0005
-6.048e-06,1.49012e-11
-6.040e-06,-0.0005
-6.032e-06,0.0005
-6.024e-06,1.49012e-11
-6.016e-06,0.0005
-6.008e-06,0.0005
-6.000e-06,0.0005
-5.992e-06,1.49012e-11
-5.984e-06,0.001
-5.976e-06,0.001
-5.968e-06,0.0005
-5.960e-06,0.0005
-5.952e-06,0.0005
-5.944e-06,-0.0005
-5.936e-06,0.0005
-5.928e-06,0.0005
-5.920e-06,0.0005
-5.912e-06,1.49012e-11
-5.904e-06,0.0005
-5.896e-06,0.0005
-5.888e-06,1.49012e-11
-5.880e-06,0.0005
-5.872e-06,0.0005
-5.864e-06,-0.0005
-5.856e-06,0.0005
-5.848e-06,1.49012e-11
-5.840e-06,1.49012e-11
-5.832e-06,0.0005
-5.824e-06,0.0005
-5.816e-06,1.49012e-11
-5.808e-06,0.0005
-5.800e-06,0.0005
-5.792e-06,0.0005
-5.784e-06,1.49012e-11
-5.776e-06,0.001
-5.768e-06,0.001
-5.760e-06,1.49012e-11
-5.752e-06,0.0005
-5.744e-06,1.49012e-11
-5.736e-06,-0.0005
-5.728e-06,0.0005
-5.720e-06,1.49012e-11
-5.712e-06,-0.0005
-5.704e-06,1.49012e-11
-5.696e-06,1.49012e-11
-5.688e-06,1.49012e-11
-5.680e-06,1.49012e-11
-5.672e-06,0.0005
-5.664e-06,1.49012e-11
-5.656e-06,1.49012e-11
-5.648e-06,1.49012e-11
-5.640e-06,1.49012e-11
-5.632e-06,1.49012e-11
-5.624e-06,1.49012e-11
-5.616e-06,1.49012e-11
-5.608e-06,1.49012e-11
-5.600e-06,0.0005
-5.592e-06,-0.0005
-5.584e-06,1.49012e-11
-5.576e-06,0.001
-5.568e-06,0.001
-5.560e-06,1.49012e-11
-5.552e-06,1.49012e-11
-5.544e-06,0.0005
-5.536e-06,1.49012e-11
-5.528e-06,-0.0005
-5.520e-06,0.001
-5.512e-06,0.0005
-5.504e-06,0.0005
-5.496e-06,0.0005
-5.488e-06,-0.0005
-5.480e-06,0.0015
-5.472e-06,1.49012e-11
-5.464e-06,0.001
-5.456e-06,1.49012e-11
-5.448e-06,0.0005
-5.440e-06,0.0005
-5.432e-06,0.0005
-5.424e-06,1.49012e-11
-5.416e-06,-0.0005
-5.408e-06,0.0005
-5.400e-06,1.49012e-11
-5.392e-06,0.0005
-5.384e-06,0.0005
-5.376e-06,0.0005
-5.368e-06,1.49012e-11
-5.360e-06,0.0005
-5.352e-06,0.0005
-5.344e-06,0.0005
-5.336e-06,0.0005
-5.328e-06,0.0005
-5.320e-06,0.0005
-5.312e-06,0.0005
-5.304e-06,0.0005
-5.296e-06,-0.0005
-5.288e-06,0.001
-5.280e-06,0.0005
-5.272e-06,1.49012e-11
-5.264e-06,0.0005
-5.256e-06,-0.0005
-5.248e-06,0.0005
-5.240e-06,0.0005
-5.232e-06,1.49012e-11
-5.224e-06,0.0005
-5.216e-06,1.49012e-11
-5.208e-06,1.49012e-11
-5.200e-06,0.001
-5.192e-06,-0.0005
-5.184e-06,1.49012e-11
-5.176e-06,1.49012e-11
-5.168e-06,-0.0005
-5.160e-06,0.0005
-5.152e-06,1.49012e-11
-5.144e-06,1.49012e-11
-5.136e-06,1.49012e-11
-5.128e-06,1.49012e-11
-5.120e-06,-0.0005
-5.112e-06,0.0005
-5.104e-06,1.49012e-11
-5.096e-06,1.49012e-11
-5.088e-06,1.49012e-11
-5.080e-06,0.0005
-5.072e-06,0.0005
-5.064e-06,0.0005
-5.056e-06,1.49012e-11
-5.048e-06,0.001
-5.040e-06,0.0005
-5.032e-06,1.49012e-11
-5.024e-06,0.0005
-5.016e-06,1.49012e-11
-5.008e-06,1.49012e-11
-5.000e-06,0.0005
-4.992e-06,0.0005
-4.984e-06,1.49012e-11
-4.976e-06,0.0005
-4.968e-06,1.49012e-11
-4.960e-06,0.0005
-4.952e-06,1.49012e-11
-4.944e-06,0.0005
-4.936e-06,-0.0005
-4.928e-06,0.0005
-4.920e-06,1.49012e-11
-4.912e-06,1.49012e-11
-4.904e-06,0.0005
-4.896e-06,1.49012e-11
-4.888e-06,1.49012e-11
-4.880e-06,1.49012e-11
-4.872e-06,0.0005
-4.864e-06,-0.0005
-4.856e-06,-0.0005
-4.848e-06,1.49012e-11
-4.840e-06,0.001
-4.832e-06,0.0005
-4.824e-06,-0.0005
-4.816e-06,-0.001
-4.808e-06,-0.0005
-4.800e-06,0.001
-4.792e-06,0.001
-4.784e-06,0.0005
-4.776e-06,0.0005
-4.768e-06,0.0005
-4.760e-06,0.0005
-4.752e-06,0.001
-4.744e-06,-0.0005
-4.736e-06,0.0005
-4.728e-06,1.49012e-11
-4.720e-06,0.0005
-4.712e-06,1.49012e-11
-4.704e-06,1.49012e-11
-4.696e-06,0.0005
-4.688e-06,1.49012e-11
-4.680e-06,0.0005
-4.672e-06,0.0005
-4.664e-06,1.49012e-11
-4.656e-06,0.0005
-4.648e-06,0.0005
-4.640e-06,1.49012e-11
-4.632e-06,0.0005
-4.624e-06,1.49012e-11
-4.616e-06,0.0005
-4.608e-06,1.49012e-11
-4.600e-06,1.49012e-11
-4.592e-06,-0.0005
-4.584e-06,1.49012e-11
-4.576e-06,1.49012e-11
-4.568e-06,1.49012e-11
-4.560e-06,1.49012e-11
-4.552e-06,1.49012e-11
-4.544e-06,0.0005
-4.536e-06,1.49012e-11
-4.528e-06,1.49012e-11
-4.520e-06,1.49012e-11
-4.512e-06,-0.0005
-4.504e-06,1.49012e-11
-4.496e-06,-0.0005
-4.488e-06,0.0005
-4.480e-06,0.0005
-4.472e-06,1.49012e-11
-4.464e-06,0.0005
-4.456e-06,-0.0005
-4.448e-06,0.0005
-4.440e-06,0.0005
-4.432e-06,1.49012e-11
-4.424e-06,1.49012e-11
-4.416e-06,0.0005
-4.408e-06,0.0005
-4.400e-06,0.0005
-4.392e-06,0.0005
-4.384e-06,0.0005
-4.376e-06,1.49012e-11
-4.368e-06,0.0005
-4.360e-06,0.0005
-4.352e-06,1.49012e-11
-4.344e-06,0.0005
-4.336e-06,0.001
-4.328e-06,1.49012e-11
-4.320e-06,0.001
-4.312e-06,0.0005
-4.304e-06,1.49012e-11
-4.296e-06,0.0005
-4.288e-06,1.49012e-11
-4.280e-06,1.49012e-11
-4.272e-06,1.49012e-11
-4.264e-06,0.001
-4.256e-06,0.0005
-4.248e-06,1.49012e-11
-4.240e-06,-0.001
-4.232e-06,1.49012e-11
-4.224e-06,1.49012e-11
-4.216e-06,1.49012e-11
-4.208e-06,1.49012e-11
-4.200e-06,1.49012e-11
-4.192e-06,-0.0005
-4.184e-06,-0.0005
-4.176e-06,1.49012e-11
-4.168e-06,0.001
-4.160e-06,1.49012e-11
-4.152e-06,-0.0005
-4.144e-06,-0.0005
-4.136e-06,-0.001
-4.128e-06,0.0005
-4.120e-06,0.001
-4.112e-06,1.49012e-11
-4.104e-06,1.49012e-11
-4.096e-06,1.49012e-11
-4.088e-06,0.0005
-4.080e-06,0.0005
-4.072e-06,0.0005
-4.064e-06,-0.0005
-4.056e-06,-0.001
-4.048e-06,0.0005
-4.040e-06,-0.0005
-4.032e-06,-0.001
-4.024e-06,-0.0005
-4.016e-06,1.49012e-11
-4.008e-06,-0.0005
-4.000e-06,-0.0005
-3.992e-06,-0.0005
-3.984e-06,0.0005
-3.976e-06,1.49012e-11
-3.968e-06,-0.0005
-3.960e-06,-0.0005
-3.952e-06,0.001
-3.944e-06,1.49012e-11
-3.936e-06,1.49012e-11
-3.928e-06,1.49012e-11
-3.920e-06,1.49012e-11
-3.912e-06,-0.0005
-3.904e-06,1.49012e-11
-3.896e-06,0.0005
-3.888e-06,-0.0005
-3.880e-06,1.49012e-11
-3.872e-06,1.49012e-11
-3.864e-06,1.49012e-11
-3.856e-06,1.49012e-11
-3.848e-06,0.0005
-3.840e-06,0.0005
-3.832e-06,0.0005
-3.824e-06,1.49012e-11
-3.816e-06,1.49012e-11
-3.808e-06,-0.0005
-3.800e-06,1.49012e-11
-3.792e-06,0.001
-3.784e-06,1.49012e-11
-3.776e-06,-0.0005
-3.768e-06,1.49012e-11
-3.760e-06,-0.0005
-3.752e-06,0.0005
-3.744e-06,0.0005
-3.736e-06,1.49012e-11
-3.728e-06,0.0005
-3.720e-06,1.49012e-11
-3.712e-06,0.0005
-3.704e-06,1.49012e-11
-3.696e-06,1.49012e-11
-3.688e-06,-0.0005
-3.680e-06,-0.0005
-3.672e-06,1.49012e-11
-3.664e-06,1.49012e-11
-3.656e-06,0.001
-3.648e-06,0.0005
-3.640e-06,0.001
-3.632e-06,0.0005
-3.624e-06,1.49012e-11
-3.616e-06,1.49012e-11
-3.608e-06,1.49012e-11
-3.600e-06,1.49012e-11
-3.592e-06,-0.0005
-3.584e-06,0.0005
-3.576e-06,-0.0005
-3.568e-06,1.49012e-11
-3.560e-06,1.49012e-11
-3.552e-06,-0.0005
-3.544e-06,-0.0005
-3.536e-06,0.0005
-3.528e-06,0.0005
-3.520e-06,0.0005
-3.512e-06,0.0005
-3.504e-06,0.0005
-3.496e-06,1.49012e-11
-3.488e-06,1.49012e-11
-3.480e-06,1.49012e-11
-3.472e-06,1.49012e-11
-3.464e-06,-0.0005
-3.456e-06,0.0005
-3.448e-06,0.0005
-3.440e-06,-0.0005
-3.432e-06,0.0005
-3.424e-06,0.0005
-3.416e-06,1.49012e-11
-3.408e-06,0.0005
-3.400e-06,1.49012e-11
-3.392e-06,1.49012e-11
-3.384e-06,0.0005
-3.376e-06,0.0005
-3.368e-06,0.0005
-3.360e-06,0.0005
-3.352e-06,1.49012e-11
-3.344e-06,1.49012e-11
-3.336e-06,0.0005
-3.328e-06,0.0005
-3.320e-06,0.0005
-3.312e-06,-0.001
-3.304e-06,0.0005
-3.296e-06,0.0005
-3.288e-06,0.0005
-3.280e-06,1.49012e-11
-3.272e-06,-0.001
-3.264e-06,1.49012e-11
-3.256e-06,0.0005
-3.248e-06,0.001
-3.240e-06,1.49012e-11
-3.232e-06,1.49012e-11
-3.224e-06,1.49012e-11
-3.216e-06,1.49012e-11
-3.208e-06,1.49012e-11
-3.200e-06,0.0005
-3.192e-06,0.0005
-3.184e-06,-0.001
-3.176e-06,1.49012e-11
-3.168e-06,0.0005
-3.160e-06,1.49012e-11
-3.152e-06,1.49012e-11
-3.144e-06,1.49012e-11
-3.136e-06,1.49012e-11
-3.128e-06,0.001
-3.120e-06,1.49012e-11
-3.112e-06,-0.0005
-3.104e-06,1.49012e-11
-3.096e-06,-0.0005
-3.088e-06,0.0005
-3.080e-06,-0.0005
-3.072e-06,0.0005
-3.064e-06,1.49012e-11
-3.056e-06,0.001
-3.048e-06,1.49012e-11
-3.040e-06,0.0005
-3.032e-06,-0.0005
-3.024e-06,0.0005
-3.016e-06,0.0005
-3.008e-06,0.001
-3.000e-06,0.0005
-2.992e-06,0.0005
-2.984e-06,1.49012e-11
-2.976e-06,0.002
-2.968e-06,0.0005
-2.960e-06,0.001
-2.952e-06,0.0005
-2.944e-06,0.0005
-2.936e-06,0.001
-2.928e-06,0.0005
-2.920e-06,0.001
-2.912e-06,0.0015
-2.904e-06,0.0005
-2.896e-06,1.49012e-11
-2.888e-06,0.0005
-2.880e-06,0.0005
-2.872e-06,0.0005
-2.864e-06,1.49012e-11
-2.856e-06,1.49012e-11
-2.848e-06,-0.0005
-2.840e-06,1.49012e-11
-2.832e-06,1.49012e-11
-2.824e-06,-0.0005
-2.816e-06,-0.001
-2.808e-06,1.49012e-11
-2.800e-06,-0.001
-2.792e-06,-0.0015
-2.784e-06,-0.0015
-2.776e-06,-0.001
-2.768e-06,-0.001
-2.760e-06,-0.0015
-2.752e-06,-0.0005
-2.744e-06,-0.002
-2.736e-06,-0.0025
-2.728e-06,-0.0015
-2.720e-06,-0.002
-2.712e-06,-0.002
-2.704e-06,-0.002
-2.696e-06,-0.0025
-2.688e-06,-0.003
-2.680e-06,-0.0025
-2.672e-06,-0.0025
-2.664e-06,-0.0025
-2.656e-06,-0.002
-2.648e-06,-0.002
-2.640e-06,-0.001
-2.632e-06,-0.001
-2.624e-06,-0.0005
-2.616e-06,-0.001
-2.608e-06,0.0005
-2.600e-06,-0.0005
-2.592e-06,1.49012e-11
-2.584e-06,0.001
-2.576e-06,0.0005
-2.568e-06,0.0005
-2.560e-06,0.002
-2.552e-06,0.002
-2.544e-06,0.0025
-2.536e-06,0.003
-2.528e-06,0.003
-2.520e-06,0.003
-2.512e-06,0.0035
-2.504e-06,0.0035
-2.496e-06,0.0035
-2.488e-06,0.004
-2.480e-06,0.004
-2.472e-06,0.0035
-2.464e-06,0.0035
-2.456e-06,0.004
-2.448e-06,0.0045
-2.440e-06,0.0035
-2.432e-06,0.003
-2.424e-06,0.0035
-2.416e-06,0.0035
-2.408e-06,0.0025
-2.400e-06,0.003
-2.392e-06,0.0015
-2.384e-06,0.0025
-2.376e-06,0.001
-2.368e-06,0.0005
-2.360e-06,0.0005
-2.352e-06,0.0005
-2.344e-06,1.49012e-11
-2.336e-06,-0.0005
-2.328e-06,-0.001
-2.320e-06,-0.001
-2.312e-06,-0.003
-2.304e-06,-0.0025
-2.296e-06,-0.003
-2.288e-06,-0.004
-2.280e-06,-0.004
-2.272e-06,-0.004
-2.264e-06,-0.004
-2.256e-06,-0.005
-2.248e-06,-0.0045
-2.240e-06,-0.005
-2.232e-06,-0.005
-2.224e-06,-0.0045
-2.216e-06,-0.0045
-2.208e-06,-0.0035
-2.200e-06,-0.006
-2.192e-06,-0.004
-2.184e-06,-0.0035
-2.176e-06,-0.004
-2.168e-06,-0.004
-2.160e-06,-0.004
-2.152e-06,-0.003
-2.144e-06,-0.0025
-2.136e-06,-0.002
-2.128e-06,-0.0015
-2.120e-06,-0.0005
-2.112e-06,-0.001
-2.104e-06,1.49012e-11
-2.096e-06,0.001
-2.088e-06,0.001
-2.080e-06,0.001
-2.072e-06,0.002
-2.064e-06,0.001
-2.056e-06,0.002
-2.048e-06,0.0025
-2.040e-06,0.0025
-2.032e-06,0.0035
-2.024e-06,0.0035
-2.016e-06,0.004
-2.008e-06,0.0035
-2.000e-06,0.004
-1.992e-06,0.0045
-1.984e-06,0.004
-1.976e-06,0.0045
-1.968e-06,0.004
-1.960e-06,0.004
-1.952e-06,0.0045
-1.944e-06,0.0045
-1.936e-06,0.0035
-1.928e-06,0.0035
-1.920e-06,0.0035
-1.912e-06,0.003
-1.904e-06,0.0025
-1.896e-06,0.003
-1.888e-06,0.0025
-1.880e-06,0.0015
-1.872e-06,0.0015
-1.864e-06,0.001
-1.856e-06,1.49012e-11
-1.848e-06,0.0005
-1.840e-06,1.49012e-11
-1.832e-06,1.49012e-11
-1.824e-06,-0.0005
-1.816e-06,-0.001
-1.808e-06,-0.001
-1.800e-06,-0.0015
-1.792e-06,-0.0015
-1.784e-06,-0.0015
-1.776e-06,-0.001
-1.768e-06,-0.0015
-1.760e-06,-0.0025
-1.752e-06,-0.0025
-1.744e-06,-0.002
-1.736e-06,-0.0025
-1.728e-06,-0.002
-1.720e-06,-0.0015
-1.712e-06,-0.0025
-1.704e-06,-0.003
-1.696e-06,-0.0015
-1.688e-06,-0.001
-1.680e-06,-0.002
-1.672e-06,-0.002
-1.664e-06,-0.002
-1.656e-06,-0.002
-1.648e-06,-0.0015
-1.640e-06,-0.0015
-1.632e-06,-0.0015
-1.624e-06,-0.001
-1.616e-06,-0.0015
-1.608e-06,-0.001
-1.600e-06,-0.001
-1.592e-06,0.0005
-1.584e-06,-0.0005
-1.576e-06,1.49012e-11
-1.568e-06,1.49012e-11
-1.560e-06,0.001
-1.552e-06,0.0005
-1.544e-06,0.0015
-1.536e-06,0.001
-1.528e-06,0.0015
-1.520e-06,0.002
-1.512e-06,0.0015
-1.504e-06,0.002
-1.496e-06,0.0015
-1.488e-06,0.002
-1.480e-06,0.002
-1.472e-06,0.002
-1.464e-06,0.0015
-1.456e-06,0.002
-1.448e-06,0.0015
-1.440e-06,0.0015
-1.432e-06,0.0015
-1.424e-06,0.0025
-1.416e-06,0.0015
-1.408e-06,0.002
-1.400e-06,0.0015
-1.392e-06,0.001
-1.384e-06,0.002
-1.376e-06,0.001
-1.368e-06,0.0015
-1.360e-06,0.0005
-1.352e-06,0.0005
-1.344e-06,0.0005
-1.336e-06,0.0005
-1.328e-06,0.0005
-1.320e-06,1.49012e-11
-1.312e-06,-0.0005
-1.304e-06,-0.0005
-1.296e-06,1.49012e-11
-1.288e-06,-0.0005
-1.280e-06,1.49012e-11
-1.272e-06,1.49012e-11
-1.264e-06,-0.0005
-1.256e-06,-0.001
-1.248e-06,-0.0015
-1.240e-06,-0.0015
-1.232e-06,-0.002
-1.224e-06,-0.0025
-1.216e-06,-0.0025
-1.208e-06,-0.003
-1.200e-06,-0.0035
-1.192e-06,-0.0035
-1.184e-06,-0.003
-1.176e-06,-0.0035
-1.168e-06,-0.004
-1.160e-06,-0.0035
-1.152e-06,-0.0035
-1.144e-06,-0.004
-1.136e-06,-0.004
-1.128e-06,-0.004
-1.120e-06,-0.004
-1.112e-06,-0.0045
-1.104e-06,-0.0045
-1.096e-06,-0.004
-1.088e-06,-0.003
-1.080e-06,-0.004
-1.072e-06,-0.003
-1.064e-06,-0.002
-1.056e-06,-0.0025
-1.048e-06,-0.002
-1.040e-06,-0.001
-1.032e-06,-0.001
-1.024e-06,-0.001
-1.016e-06,0.0005
-1.008e-06,0.0005
-1.000e-06,0.002
-9.920e-07,0.002
-9.840e-07,0.0025
-9.760e-07,0.0035
-9.680e-07,0.004
-9.600e-07,0.0045
-9.520e-07,0.0045
-9.440e-07,0.005
-9.360e-07,0.006
-9.280e-07,0.006
-9.200e-07,0.0065
-9.120e-07,0.007
-9.040e-07,0.0075
-8.960e-07,0.0075
-8.880e-07,0.007
-8.800e-07,0.0075
-8.720e-07,0.008
-8.640e-07,0.008
-8.560e-07,0.007
-8.480e-07,0.007
-8.400e-07,0.0075
-8.320e-07,0.006
-8.240e-07,0.0055
-8.160e-07,0.0055
-8.080e-07,0.005
-8.000e-07,0.0045
-7.920e-07,0.003
-7.840e-07,0.002
-7.760e-07,0.002
-7.680e-07,0.001
-7.600e-07,0.0005
-7.520e-07,1.49012e-11
-7.440e-07,-0.0005
-7.360e-07,-0.0015
-7.280e-07,-0.003
-7.200e-07,-0.003
-7.120e-07,-0.005
-7.040e-07,-0.0045
-6.960e-07,-0.0055
-6.880e-07,-0.006
-6.800e-07,-0.007
-6.720e-07,-0.007
-6.640e-07,-0.008
-6.560e-07,-0.009
-6.480e-07,-0.0085
-6.400e-07,-0.009
-6.320e-07,-0.0095
-6.240e-07,-0.009
-6.160e-07,-0.009
-6.080e-07,-0.009
-6.000e-07,-0.0085
-5.920e-07,-0.008
-5.840e-07,-0.0075
-5.760e-07,-0.006
-5.680e-07,-0.006
-5.600e-07,-0.0055
-5.520e-07,-0.005
-5.440e-07,-0.004
-5.360e-07,-0.003
-5.280e-07,-0.002
-5.200e-07,-0.0015
-5.120e-07,-0.001
-5.040e-07,1.49012e-11
-4.960e-07,0.0015
-4.880e-07,0.002
-4.800e-07,0.0025
-4.720e-07,0.004
-4.640e-07,0.004
-4.560e-07,0.0055
-4.480e-07,0.005
-4.400e-07,0.006
-4.320e-07,0.007
-4.240e-07,0.0075
-4.160e-07,0.0085
-4.080e-07,0.0075
-4.000e-07,0.008
-3.920e-07,0.0065
-3.840e-07,0.008
-3.760e-07,0.007
-3.680e-07,0.0075
-3.600e-07,0.0065
-3.520e-07,0.006
-3.440e-07,0.0065
-3.360e-07,0.005
-3.280e-07,0.005
-3.200e-07,0.0045
-3.120e-07,0.0035
-3.040e-07,0.002
-2.960e-07,0.0005
-2.880e-07,0.001
-2.800e-07,1.49012e-11
-2.720e-07,-0.001
-2.640e-07,-0.002
-2.560e-07,-0.003
-2.480e-07,-0.0045
-2.400e-07,-0.0055
-2.320e-07,-0.006
-2.240e-07,-0.0065
-2.160e-07,-0.0075
-2.080e-07,-0.009
-2.000e-07,-0.009
-1.920e-07,-0.0095
-1.840e-07,-0.0105
-1.760e-07,-0.0105
-1.680e-07,-0.011
-1.600e-07,-0.0105
-1.520e-07,-0.0115
-1.440e-07,-0.0115
-1.360e-07,-0.011
-1.280e-07,-0.011
-1.200e-07,-0.01
-1.120e-07,-0.0095
-1.040e-07,-0.009
-9.600e-08,-0.008
-8.800e-08,-0.0075
-8.000e-08,-0.0065
-7.200e-08,-0.0065
-6.400e-08,-0.005
-5.600e-08,-0.003
-4.800e-08,-0.0015
-4.000e-08,-0.0005
-3.200e-08,0.001
-2.400e-08,0.0015
-1.600e-08,0.0025
-8.000e-09,0.004
-6.121e-20,0.0055
8.000e-09,0.007
1.600e-08,0.0075
2.400e-08,0.0085
3.200e-08,0.01
4.000e-08,0.011
4.800e-08,0.012
5.600e-08,0.013
6.400e-08,0.0145
7.200e-08,0.014
8.000e-08,0.0155
8.800e-08,0.0155
9.600e-08,0.016
1.040e-07,0.016
1.120e-07,0.015
1.200e-07,0.0155
1.280e-07,0.014
1.360e-07,0.015
1.440e-07,0.0135
1.520e-07,0.012
1.600e-07,0.0125
1.680e-07,0.0115
1.760e-07,0.01
1.840e-07,0.009
1.920e-07,0.0075
2.000e-07,0.007
2.080e-07,0.0045
2.160e-07,0.0035
2.240e-07,0.003
2.320e-07,0.0005
2.400e-07,-0.0005
2.480e-07,-0.002
2.560e-07,-0.0035
2.640e-07,-0.005
2.720e-07,-0.006
2.800e-07,-0.008
2.880e-07,-0.0085
2.960e-07,-0.009
3.040e-07,-0.011
3.120e-07,-0.0115
3.200e-07,-0.0125
3.280e-07,-0.0125
3.360e-07,-0.014
3.440e-07,-0.0145
3.520e-07,-0.014
3.600e-07,-0.015
3.680e-07,-0.0155
3.760e-07,-0.014
3.840e-07,-0.0145
3.920e-07,-0.0135
4.000e-07,-0.0135
4.080e-07,-0.014
4.160e-07,-0.012
4.240e-07,-0.0115
4.320e-07,-0.0115
4.400e-07,-0.01
4.480e-07,-0.0095
4.560e-07,-0.0075
4.640e-07,-0.0065
4.720e-07,-0.0055
4.800e-07,-0.004
4.880e-07,-0.0035
4.960e-07,-0.001
5.040e-07,1.49012e-11
5.120e-07,0.001
5.200e-07,0.0015
5.280e-07,0.003
5.360e-07,0.0045
5.440e-07,0.0055
5.520e-07,0.007
5.600e-07,0.0085
5.680e-07,0.0095
5.760e-07,0.01
5.840e-07,0.011
5.920e-07,0.011
6.000e-07,0.012
6.080e-07,0.012
6.160e-07,0.0125
6.240e-07,0.0125
6.320e-07,0.0125
6.400e-07,0.012
6.480e-07,0.012
6.560e-07,0.012
6.640e-07,0.011
6.720e-07,0.012
6.800e-07,0.0105
6.880e-07,0.0105
6.960e-07,0.01
7.040e-07,0.01
7.120e-07,0.008
7.200e-07,0.0075
7.280e-07,0.006
7.360e-07,0.006
7.440e-07,0.0045
7.520e-07,0.0035
7.600e-07,0.0025
7.680e-07,0.001
7.760e-07,0.0005
7.840e-07,-0.001
7.920e-07,-0.0025
8.000e-07,-0.003
8.080e-07,-0.004
8.160e-07,-0.0055
8.240e-07,-0.006
8.320e-07,-0.007
8.400e-07,-0.0075
8.480e-07,-0.0085
8.560e-07,-0.0095
8.640e-07,-0.009
8.720e-07,-0.0105
8.800e-07,-0.0105
8.880e-07,-0.0115
8.960e-07,-0.012
9.040e-07,-0.0115
9.120e-07,-0.0115
9.200e-07,-0.012
9.280e-07,-0.012
9.360e-07,-0.011
9.440e-07,-0.011
9.520e-07,-0.0105
9.600e-07,-0.0095
9.680e-07,-0.0095
9.760e-07,-0.008
9.840e-07,-0.007
9.920e-07,-0.0065
1.000e-06,-0.0055
1.008e-06,-0.0045
1.016e-06,-0.0035
1.024e-06,-0.002
1.032e-06,-0.0015
1.040e-06,0.0005
1.048e-06,0.0015
1.056e-06,0.0025
1.064e-06,0.0035
1.072e-06,0.0055
1.080e-06,0.006
1.088e-06,0.007
1.096e-06,0.008
1.104e-06,0.009
1.112e-06,0.0095
1.120e-06,0.0115
1.128e-06,0.0115
1.136e-06,0.0115
1.144e-06,0.0125
1.152e-06,0.013
1.160e-06,0.014
1.168e-06,0.013
1.176e-06,0.015
1.184e-06,0.0145
1.192e-06,0.0145
1.200e-06,0.015
1.208e-06,0.0135
1.216e-06,0.014
1.224e-06,0.013
1.232e-06,0.012
1.240e-06,0.012
1.248e-06,0.0115
1.256e-06,0.0095
1.264e-06,0.008
1.272e-06,0.0075
1.280e-06,0.0065
1.288e-06,0.004
1.296e-06,0.0035
1.304e-06,0.0025
1.312e-06,0.001
1.320e-06,0.001
1.328e-06,-0.001
1.336e-06,-0.0025
1.344e-06,-0.004
1.352e-06,-0.004
1.360e-06,-0.0055
1.368e-06,-0.0065
1.376e-06,-0.0075
1.384e-06,-0.009
