data/hydrophone_acoustic_pressure/quasi2D_pdms_channel_scan/raw_csv/CSV29_X11_Y11_Z06.csv

Model,TBS2072
Firmware Version,v1.26.0

Point Format,Y
Horizontal Units,S
Horizontal Scale,1e-06
Sample Interval,8e-09
Filter Frequency,1e+08
Record Length,2000
Gating,0.0% to 100.0%
Probe Attenuation,1
Vertical Units,V
Vertical Offset,0
Vertical Scale,0.01
Label,
TIME,CH1
-5.3440e-06,-0.0005
-5.3360e-06,-1.49012e-11
-5.3280e-06,-1.49012e-11
-5.3200e-06,0.0005
-5.3120e-06,-1.49012e-11
-5.3040e-06,-1.49012e-11
-5.2960e-06,-0.0005
-5.2880e-06,-1.49012e-11
-5.2800e-06,0.0005
-5.2720e-06,0.0005
-5.2640e-06,0.001
-5.2560e-06,0.0005
-5.2480e-06,-1.49012e-11
-5.2400e-06,0.001
-5.2320e-06,-1.49012e-11
-5.2240e-06,0.0005
-5.2160e-06,0.0005
-5.2080e-06,0.0005
-5.2000e-06,0.0005
-5.1920e-06,0.001
-5.1840e-06,0.0005
-5.1760e-06,0.0005
-5.1680e-06,-1.49012e-11
-5.1600e-06,-1.49012e-11
-5.1520e-06,-1.49012e-11
-5.1440e-06,0.0005
-5.1360e-06,-0.0005
-5.1280e-06,-1.49012e-11
-5.1200e-06,-1.49012e-11
-5.1120e-06,-0.0005
-5.1040e-06,0.0005
-5.0960e-06,-1.49012e-11
-5.0880e-06,0.0005
-5.0800e-06,0.0005
-5.0720e-06,0.0005
-5.0640e-06,0.0005
-5.0560e-06,-1.49012e-11
-5.0480e-06,-1.49012e-11
-5.0400e-06,-0.0005
-5.0320e-06,-0.001
-5.0240e-06,-0.0005
-5.0160e-06,0.0005
-5.0080e-06,0.001
-5.0000e-06,-1.49012e-11
-4.9920e-06,-1.49012e-11
-4.9840e-06,-1.49012e-11
-4.9760e-06,0.0005
-4.9680e-06,0.001
-4.9600e-06,0.0015
-4.9520e-06,-0.0015
-4.9440e-06,-1.49012e-11
-4.9360e-06,0.0005
-4.9280e-06,0.001
-4.9200e-06,0.0005
-4.9120e-06,-0.001
-4.9040e-06,-0.001
-4.8960e-06,-0.0005
-4.8880e-06,0.001
-4.8800e-06,-1.49012e-11
-4.8720e-06,-0.0005
-4.8640e-06,-0.001
-4.8560e-06,-1.49012e-11
-4.8480e-06,-1.49012e-11
-4.8400e-06,0.0005
-4.8320e-06,0.0005
-4.8240e-06,-1.49012e-11
-4.8160e-06,0.0005
-4.8080e-06,0.0015
-4.8000e-06,0.001
-4.7920e-06,0.0005
-4.7840e-06,-1.49012e-11
-4.7760e-06,0.0005
-4.7680e-06,0.0005
-4.7600e-06,0.0015
-4.7520e-06,0.001
-4.7440e-06,-1.49012e-11
-4.7360e-06,-0.0005
-4.7280e-06,0.0005
-4.7200e-06,0.0005
-4.7120e-06,-0.0005
-4.7040e-06,-1.49012e-11
-4.6960e-06,-0.0005
-4.6880e-06,0.0005
-4.6800e-06,0.001
-4.6720e-06,-1.49012e-11
-4.6640e-06,-1.49012e-11
-4.6560e-06,-1.49012e-11
-4.6480e-06,-0.0005
-4.6400e-06,0.001
-4.6320e-06,0.0005
-4.6240e-06,-1.49012e-11
-4.6160e-06,-0.0005
-4.6080e-06,-1.49012e-11
-4.6000e-06,-1.49012e-11
-4.5920e-06,-0.0005
-4.5840e-06,-0.0005
-4.5760e-06,-1.49012e-11
-4.5680e-06,-1.49012e-11
-4.5600e-06,-0.0005
-4.5520e-06,-0.0005
-4.5440e-06,-1.49012e-11
-4.5360e-06,-0.0005
-4.5280e-06,-0.001
-4.5200e-06,-1.49012e-11
-4.5120e-06,-1.49012e-11
-4.5040e-06,-1.49012e-11
-4.4960e-06,-1.49012e-11
-4.4880e-06,-1.49012e-11
-4.4800e-06,-1.49012e-11
-4.4720e-06,0.001
-4.4640e-06,-1.49012e-11
-4.4560e-06,-0.0005
-4.4480e-06,-0.001
-4.4400e-06,-0.002
-4.4320e-06,-0.0005
-4.4240e-06,0.0005
-4.4160e-06,-1.49012e-11
-4.4080e-06,-0.0015
-4.4000e-06,-0.0005
-4.3920e-06,0.001
-4.3840e-06,0.0015
-4.3760e-06,-1.49012e-11
-4.3680e-06,0.0005
-4.3600e-06,-0.001
-4.3520e-06,0.0005
-4.3440e-06,0.0005
-4.3360e-06,0.0005
-4.3280e-06,-1.49012e-11
-4.3200e-06,-0.002
-4.3120e-06,0.001
-4.3040e-06,0.0005
-4.2960e-06,-1.49012e-11
-4.2880e-06,-1.49012e-11
-4.2800e-06,-0.0005
-4.2720e-06,-1.49012e-11
-4.2640e-06,0.0005
-4.2560e-06,0.001
-4.2480e-06,-1.49012e-11
-4.2400e-06,0.0005
-4.2320e-06,0.0005
-4.2240e-06,0.0005
-4.2160e-06,0.0015
-4.2080e-06,0.001
-4.2000e-06,-1.49012e-11
-4.1920e-06,0.0005
-4.1840e-06,0.0005
-4.1760e-06,-1.49012e-11
-4.1680e-06,0.001
-4.1600e-06,0.0005
-4.1520e-06,-0.0005
-4.1440e-06,-1.49012e-11
-4.1360e-06,-1.49012e-11
-4.1280e-06,0.0005
-4.1200e-06,0.0005
-4.1120e-06,-0.0005
-4.1040e-06,0.0005
-4.0960e-06,0.0005
-4.0880e-06,0.0005
-4.0800e-06,0.0005
-4.0720e-06,-0.0005
-4.0640e-06,-1.49012e-11
-4.0560e-06,0.0005
-4.0480e-06,0.001
-4.0400e-06,0.0015
-4.0320e-06,0.0005
-4.0240e-06,0.0005
-4.0160e-06,0.0005
-4.0080e-06,-0.0005
-4.0000e-06,0.0005
-3.9920e-06,-1.49012e-11
-3.9840e-06,-1.49012e-11
-3.9760e-06,-1.49012e-11
-3.9680e-06,-0.0005
-3.9600e-06,-0.0005
-3.9520e-06,0.001
-3.9440e-06,0.001
-3.9360e-06,-1.49012e-11
-3.9280e-06,0.0005
-3.9200e-06,0.0005
-3.9120e-06,0.0005
-3.9040e-06,-1.49012e-11
-3.8960e-06,0.0005
-3.8880e-06,-1.49012e-11
-3.8800e-06,-1.49012e-11
-3.8720e-06,0.0005
-3.8640e-06,-0.001
-3.8560e-06,-0.0015
-3.8480e-06,-0.001
-3.8400e-06,-1.49012e-11
-3.8320e-06,0.001
-3.8240e-06,-1.49012e-11
-3.8160e-06,-0.0015
-3.8080e-06,-1.49012e-11
-3.8000e-06,0.0015
-3.7920e-06,-1.49012e-11
-3.7840e-06,-1.49012e-11
-3.7760e-06,-0.0005
-3.7680e-06,0.0005
-3.7600e-06,0.0005
-3.7520e-06,0.0015
-3.7440e-06,0.0005
-3.7360e-06,-0.0015
-3.7280e-06,-1.49012e-11
-3.7200e-06,-0.0005
-3.7120e-06,0.0005
-3.7040e-06,0.0005
-3.6960e-06,-1.49012e-11
-3.6880e-06,-0.001
-3.6800e-06,0.0005
-3.6720e-06,0.0005
-3.6640e-06,0.0005
-3.6560e-06,0.0005
-3.6480e-06,0.001
-3.6400e-06,0.0005
-3.6320e-06,0.0015
-3.6240e-06,0.001
-3.6160e-06,0.0005
-3.6080e-06,0.0005
-3.6000e-06,0.0005
-3.5920e-06,0.0005
-3.5840e-06,0.0015
-3.5760e-06,0.001
-3.5680e-06,-0.0005
-3.5600e-06,-0.0005
-3.5520e-06,0.0005
-3.5440e-06,0.001
-3.5360e-06,0.0005
-3.5280e-06,-1.49012e-11
-3.5200e-06,-1.49012e-11
-3.5120e-06,0.001
-3.5040e-06,0.0005
-3.4960e-06,0.0005
-3.4880e-06,-1.49012e-11
-3.4800e-06,-1.49012e-11
-3.4720e-06,0.0005
-3.4640e-06,0.0005
-3.4560e-06,0.001
-3.4480e-06,-1.49012e-11
-3.4400e-06,-1.49012e-11
-3.4320e-06,0.0005
-3.4240e-06,0.0005
-3.4160e-06,-1.49012e-11
-3.4080e-06,-1.49012e-11
-3.4000e-06,0.0005
-3.3920e-06,0.0005
-3.3840e-06,-0.0005
-3.3760e-06,-1.49012e-11
-3.3680e-06,-1.49012e-11
-3.3600e-06,-0.0005
-3.3520e-06,-1.49012e-11
-3.3440e-06,-1.49012e-11
-3.3360e-06,0.0005
-3.3280e-06,0.0005
-3.3200e-06,-1.49012e-11
-3.3120e-06,-1.49012e-11
-3.3040e-06,0.001
-3.2960e-06,-1.49012e-11
-3.2880e-06,0.0005
-3.2800e-06,-0.0005
-3.2720e-06,-0.0015
-3.2640e-06,-0.0015
-3.2560e-06,-1.49012e-11
-3.2480e-06,0.001
-3.2400e-06,-1.49012e-11
-3.2320e-06,-0.0005
-3.2240e-06,-1.49012e-11
-3.2160e-06,0.0005
-3.2080e-06,0.0015
-3.2000e-06,-1.49012e-11
-3.1920e-06,-0.0005
-3.1840e-06,-0.0005
-3.1760e-06,-1.49012e-11
-3.1680e-06,0.0015
-3.1600e-06,-1.49012e-11
-3.1520e-06,-0.0005
-3.1440e-06,-0.0005
-3.1360e-06,-0.0005
-3.1280e-06,0.0015
-3.1200e-06,0.001
-3.1120e-06,-1.49012e-11
-3.1040e-06,-0.0005
-3.0960e-06,-1.49012e-11
-3.0880e-06,0.0005
-3.0800e-06,0.0015
-3.0720e-06,0.0005
-3.0640e-06,0.0005
-3.0560e-06,-1.49012e-11
-3.0480e-06,0.0005
-3.0400e-06,0.001
-3.0320e-06,0.0005
-3.0240e-06,0.001
-3.0160e-06,-0.0005
-3.0080e-06,0.0005
-3.0000e-06,0.001
-2.9920e-06,0.001
-2.9840e-06,0.001
-2.9760e-06,-1.49012e-11
-2.9680e-06,0.0005
-2.9600e-06,-1.49012e-11
-2.9520e-06,-1.49012e-11
-2.9440e-06,0.0005
-2.9360e-06,0.0005
-2.9280e-06,0.0005
-2.9200e-06,0.0005
-2.9120e-06,0.001
-2.9040e-06,0.001
-2.8960e-06,0.001
-2.8880e-06,0.001
-2.8800e-06,0.0005
-2.8720e-06,0.001
-2.8640e-06,0.0005
-2.8560e-06,0.0005
-2.8480e-06,-0.0005
-2.8400e-06,0.001
-2.8320e-06,-1.49012e-11
-2.8240e-06,0.0005
-2.8160e-06,0.0005
-2.8080e-06,0.0005
-2.8000e-06,0.0005
-2.7920e-06,-1.49012e-11
-2.7840e-06,-1.49012e-11
-2.7760e-06,-1.49012e-11
-2.7680e-06,-1.49012e-11
-2.7600e-06,0.0005
-2.7520e-06,-1.49012e-11
-2.7440e-06,0.001
-2.7360e-06,-1.49012e-11
-2.7280e-06,-1.49012e-11
-2.7200e-06,0.0005
-2.7120e-06,-1.49012e-11
-2.7040e-06,0.0005
-2.6960e-06,-1.49012e-11
-2.6880e-06,-0.0005
-2.6800e-06,-0.001
-2.6720e-06,-0.0005
-2.6640e-06,-1.49012e-11
-2.6560e-06,0.001
-2.6480e-06,-1.49012e-11
-2.6400e-06,-0.0005
-2.6320e-06,-1.49012e-11
-2.6240e-06,0.001
-2.6160e-06,0.001
-2.6080e-06,0.001
-2.6000e-06,-1.49012e-11
-2.5920e-06,0.0005
-2.5840e-06,0.0005
-2.5760e-06,0.001
-2.5680e-06,-0.0005
-2.5600e-06,-1.49012e-11
-2.5520e-06,-1.49012e-11
-2.5440e-06,-0.0005
-2.5360e-06,0.001
-2.5280e-06,-1.49012e-11
-2.5200e-06,-1.49012e-11
-2.5120e-06,-0.001
-2.5040e-06,0.0005
-2.4960e-06,-1.49012e-11
-2.4880e-06,0.0005
-2.4800e-06,0.001
-2.4720e-06,-1.49012e-11
-2.4640e-06,-1.49012e-11
-2.4560e-06,0.0015
-2.4480e-06,0.0015
-2.4400e-06,0.0005
-2.4320e-06,-1.49012e-11
-2.4240e-06,-1.49012e-11
-2.4160e-06,0.0015
-2.4080e-06,-1.49012e-11
-2.4000e-06,0.001
-2.3920e-06,-1.49012e-11
-2.3840e-06,-1.49012e-11
-2.3760e-06,-1.49012e-11
-2.3680e-06,0.0005
-2.3600e-06,-1.49012e-11
-2.3520e-06,0.0005
-2.3440e-06,0.001
-2.3360e-06,0.001
-2.3280e-06,0.001
-2.3200e-06,0.0005
-2.3120e-06,0.0005
-2.3040e-06,0.0005
-2.2960e-06,-1.49012e-11
-2.2880e-06,0.0005
-2.2800e-06,0.0005
-2.2720e-06,0.0005
-2.2640e-06,0.0005
-2.2560e-06,0.0005
-2.2480e-06,0.0005
-2.2400e-06,-1.49012e-11
-2.2320e-06,0.0005
-2.2240e-06,0.0005
-2.2160e-06,-1.49012e-11
-2.2080e-06,0.0005
-2.2000e-06,-1.49012e-11
-2.1920e-06,0.0005
-2.1840e-06,0.0005
-2.1760e-06,-1.49012e-11
-2.1680e-06,0.0005
-2.1600e-06,0.0005
-2.1520e-06,-1.49012e-11
-2.1440e-06,0.0005
-2.1360e-06,-0.0005
-2.1280e-06,-1.49012e-11
-2.1200e-06,0.0005
-2.1120e-06,-1.49012e-11
-2.1040e-06,-0.0005
-2.0960e-06,-0.001
-2.0880e-06,-0.0015
-2.0800e-06,-1.49012e-11
-2.0720e-06,0.001
-2.0640e-06,0.001
-2.0560e-06,-0.001
-2.0480e-06,-0.0015
-2.0400e-06,-1.49012e-11
-2.0320e-06,0.001
-2.0240e-06,-1.49012e-11
-2.0160e-06,-0.0005
-2.0080e-06,-0.001
-2.0000e-06,-1.49012e-11
-1.9920e-06,0.0005
-1.9840e-06,0.0005
-1.9760e-06,-1.49012e-11
-1.9680e-06,-0.001
-1.9600e-06,-0.0005
-1.9520e-06,-1.49012e-11
-1.9440e-06,0.0005
-1.9360e-06,0.0005
-1.9280e-06,-0.0005
-1.9200e-06,-0.0005
-1.9120e-06,-1.49012e-11
-1.9040e-06,0.0005
-1.8960e-06,0.001
-1.8880e-06,0.0005
-1.8800e-06,-1.49012e-11
-1.8720e-06,0.001
-1.8640e-06,0.0005
-1.8560e-06,0.002
-1.8480e-06,-1.49012e-11
-1.8400e-06,0.0005
-1.8320e-06,-1.49012e-11
-1.8240e-06,0.001
-1.8160e-06,0.0005
-1.8080e-06,-1.49012e-11
-1.8000e-06,-1.49012e-11
-1.7920e-06,0.0005
-1.7840e-06,0.001
-1.7760e-06,0.0005
-1.7680e-06,-1.49012e-11
-1.7600e-06,-1.49012e-11
-1.7520e-06,0.0005
-1.7440e-06,0.0005
-1.7360e-06,0.0005
-1.7280e-06,0.001
-1.7200e-06,0.001
-1.7120e-06,0.001
-1.7040e-06,0.0005
-1.6960e-06,0.0015
-1.6880e-06,0.001
-1.6800e-06,0.001
-1.6720e-06,-0.0005
-1.6640e-06,-1.49012e-11
-1.6560e-06,0.0005
-1.6480e-06,0.001
-1.6400e-06,0.0005
-1.6320e-06,-1.49012e-11
-1.6240e-06,0.0005
-1.6160e-06,0.0005
-1.6080e-06,-0.0005
-1.6000e-06,0.0005
-1.5920e-06,0.001
-1.5840e-06,-1.49012e-11
-1.5760e-06,0.0005
-1.5680e-06,0.0015
-1.5600e-06,0.0005
-1.5520e-06,0.001
-1.5440e-06,0.0005
-1.5360e-06,-1.49012e-11
-1.5280e-06,0.0005
-1.5200e-06,-1.49012e-11
-1.5120e-06,-0.0005
-1.5040e-06,-0.001
-1.4960e-06,-1.49012e-11
-1.4880e-06,0.0005
-1.4800e-06,0.001
-1.4720e-06,0.001
-1.4640e-06,-0.0005
-1.4560e-06,-1.49012e-11
-1.4480e-06,0.0015
-1.4400e-06,0.001
-1.4320e-06,0.001
-1.4240e-06,-0.0005
-1.4160e-06,0.0005
-1.4080e-06,-1.49012e-11
-1.4000e-06,0.0015
-1.3920e-06,0.0005
-1.3840e-06,-0.0005
-1.3760e-06,-0.0005
-1.3680e-06,-1.49012e-11
-1.3600e-06,0.0015
-1.3520e-06,0.001
-1.3440e-06,-1.49012e-11
-1.3360e-06,-0.0005
-1.3280e-06,-1.49012e-11
-1.3200e-06,0.0005
-1.3120e-06,0.0015
-1.3040e-06,0.001
-1.2960e-06,-1.49012e-11
-1.2880e-06,0.001
-1.2800e-06,0.0005
-1.2720e-06,0.0015
-1.2640e-06,0.0005
-1.2560e-06,-1.49012e-11
-1.2480e-06,-0.0005
-1.2400e-06,0.0015
-1.2320e-06,0.001
-1.2240e-06,0.0005
-1.2160e-06,-1.49012e-11
-1.2080e-06,-0.0005
-1.2000e-06,0.0015
-1.1920e-06,0.001
-1.1840e-06,0.0005
-1.1760e-06,-1.49012e-11
-1.1680e-06,-1.49012e-11
-1.1600e-06,0.0005
-1.1520e-06,0.001
-1.1440e-06,0.0005
-1.1360e-06,0.0005
-1.1280e-06,0.0005
-1.1200e-06,0.001
-1.1120e-06,-1.49012e-11
-1.1040e-06,0.001
-1.0960e-06,0.0005
-1.0880e-06,0.001
-1.0800e-06,0.0005
-1.0720e-06,-1.49012e-11
-1.0640e-06,-1.49012e-11
-1.0560e-06,0.0005
-1.0480e-06,-1.49012e-11
-1.0400e-06,0.0005
-1.0320e-06,0.0005
-1.0240e-06,0.0005
-1.0160e-06,0.0005
-1.0080e-06,-0.0005
-1.0000e-06,0.0005
-9.9200e-07,-1.49012e-11
-9.8400e-07,-1.49012e-11
-9.7600e-07,0.0015
-9.6800e-07,-1.49012e-11
-9.6000e-07,0.0005
-9.5200e-07,-1.49012e-11
-9.4400e-07,0.0005
-9.3600e-07,0.001
-9.2800e-07,-1.49012e-11
-9.2000e-07,-0.0005
-9.1200e-07,-0.001
-9.0400e-07,-0.0005
-8.9600e-07,0.0005
-8.8800e-07,0.001
-8.8000e-07,-0.0005
-8.7200e-07,-1.49012e-11
-8.6400e-07,0.001
-8.5600e-07,0.002
-8.4800e-07,0.001
-8.4000e-07,0.001
-8.3200e-07,-1.49012e-11
-8.2400e-07,0.0005
-8.1600e-07,0.0005
-8.0800e-07,0.0005
-8.0000e-07,-0.0005
-7.9200e-07,-0.0015
-7.8400e-07,-0.001
-7.7600e-07,-0.0005
-7.6800e-07,-1.49012e-11
-7.6000e-07,-0.0005
-7.5200e-07,-0.0005
-7.4400e-07,-1.49012e-11
-7.3600e-07,0.0005
-7.2800e-07,0.0005
-7.2000e-07,0.0005
-7.1200e-07,-1.49012e-11
-7.0400e-07,0.0015
-6.9600e-07,0.0015
-6.8800e-07,0.002
-6.8000e-07,0.0015
-6.7200e-07,0.0015
-6.6400e-07,0.0005
-6.5600e-07,0.0005
-6.4800e-07,0.0005
-6.4000e-07,-1.49012e-11
-6.3200e-07,0.0005
-6.2400e-07,-0.0005
-6.1600e-07,0.0005
-6.0800e-07,0.001
-6.0000e-07,0.002
-5.9200e-07,0.0015
-5.8400e-07,0.001
-5.7600e-07,0.001
-5.6800e-07,0.0025
-5.6000e-07,0.0025
-5.5200e-07,0.003
-5.4400e-07,0.003
-5.3600e-07,0.0035
-5.2800e-07,0.0045
-5.2000e-07,0.0045
-5.1200e-07,0.005
-5.0400e-07,0.004
-4.9600e-07,0.004
-4.8800e-07,0.004
-4.8000e-07,0.0045
-4.7200e-07,0.004
-4.6400e-07,0.004
-4.5600e-07,0.005
-4.4800e-07,0.004
-4.4000e-07,0.0035
-4.3200e-07,0.004
-4.2400e-07,0.0035
-4.1600e-07,0.003
-4.0800e-07,0.003
-4.0000e-07,0.003
-3.9200e-07,0.0035
-3.8400e-07,0.002
-3.7600e-07,0.0015
-3.6800e-07,0.001
-3.6000e-07,-1.49012e-11
-3.5200e-07,-1.49012e-11
-3.4400e-07,-0.001
-3.3600e-07,-0.002
-3.2800e-07,-0.0025
-3.2000e-07,-0.003
-3.1200e-07,-0.0045
-3.0400e-07,-0.0045
-2.9600e-07,-0.0055
-2.8800e-07,-0.006
-2.8000e-07,-0.0065
-2.7200e-07,-0.0075
-2.6400e-07,-0.007
-2.5600e-07,-0.008
-2.4800e-07,-0.0085
-2.4000e-07,-0.009
-2.3200e-07,-0.0095
-2.2400e-07,-0.009
-2.1600e-07,-0.0095
-2.0800e-07,-0.009
-2.0000e-07,-0.009
-1.9200e-07,-0.01
-1.8400e-07,-0.0095
-1.7600e-07,-0.0095
-1.6800e-07,-0.0085
-1.6000e-07,-0.009
-1.5200e-07,-0.008
-1.4400e-07,-0.0075
-1.3600e-07,-0.006
-1.2800e-07,-0.006
-1.2000e-07,-0.0045
-1.1200e-07,-0.0045
-1.0400e-07,-0.003
-9.6000e-08,-0.002
-8.8000e-08,-0.001
-8.0000e-08,0.0005
-7.2000e-08,0.001
-6.4000e-08,0.0015
-5.6000e-08,0.003
-4.8000e-08,0.0045
-4.0000e-08,0.0045
-3.2000e-08,0.006
-2.4000e-08,0.007
-1.6000e-08,0.008
-8.0000e-09,0.0095
-1.2080e-20,0.01
8.0000e-09,0.0105
1.6000e-08,0.011
2.4000e-08,0.012
3.2000e-08,0.012
4.0000e-08,0.013
4.8000e-08,0.0125
5.6000e-08,0.0135
6.4000e-08,0.0135
7.2000e-08,0.014
8.0000e-08,0.014
8.8000e-08,0.013
9.6000e-08,0.013
1.0400e-07,0.0125
1.1200e-07,0.0125
1.2000e-07,0.012
1.2800e-07,0.012
1.3600e-07,0.0105
1.4400e-07,0.0095
1.5200e-07,0.01
1.6000e-07,0.008
1.6800e-07,0.0065
1.7600e-07,0.0055
1.8400e-07,0.004
1.9200e-07,0.003
2.0000e-07,0.002
2.0800e-07,0.001
2.1600e-07,-0.0005
2.2400e-07,-0.001
2.3200e-07,-0.0025
2.4000e-07,-0.003
2.4800e-07,-0.0045
2.5600e-07,-0.0055
2.6400e-07,-0.0075
2.7200e-07,-0.008
2.8000e-07,-0.009
2.8800e-07,-0.0095
2.9600e-07,-0.0105
3.0400e-07,-0.011
3.1200e-07,-0.011
3.2000e-07,-0.012
3.2800e-07,-0.0125
3.3600e-07,-0.0125
3.4400e-07,-0.0125
3.5200e-07,-0.013
3.6000e-07,-0.0125
3.6800e-07,-0.0125
3.7600e-07,-0.012
3.8400e-07,-0.012
3.9200e-07,-0.0115
4.0000e-07,-0.0105
4.0800e-07,-0.01
4.1600e-07,-0.01
4.2400e-07,-0.0095
4.3200e-07,-0.0085
4.4000e-07,-0.007
4.4800e-07,-0.006
4.5600e-07,-0.0055
4.6400e-07,-0.0045
4.7200e-07,-0.003
4.8000e-07,-0.002
4.8800e-07,-0.0005
4.9600e-07,-0.0005
5.0400e-07,0.001
5.1200e-07,0.002
5.2000e-07,0.003
5.2800e-07,0.004
5.3600e-07,0.0045
5.4400e-07,0.006
5.5200e-07,0.0065
5.6000e-07,0.007
5.6800e-07,0.0075
5.7600e-07,0.0085
5.8400e-07,0.0095
5.9200e-07,0.0095
6.0000e-07,0.0095
6.0800e-07,0.0105
6.1600e-07,0.01
6.2400e-07,0.0105
6.3200e-07,0.011
6.4000e-07,0.011
6.4800e-07,0.0105
6.5600e-07,0.011
6.6400e-07,0.0105
6.7200e-07,0.01
6.8000e-07,0.0105
6.8800e-07,0.0095
6.9600e-07,0.0085
7.0400e-07,0.0075
7.1200e-07,0.007
7.2000e-07,0.007
7.2800e-07,0.006
7.3600e-07,0.0045
7.4400e-07,0.004
7.5200e-07,0.003
7.6000e-07,0.002
7.6800e-07,0.001
7.7600e-07,0.0005
7.8400e-07,-0.001
7.9200e-07,-0.0015
8.0000e-07,-0.003
8.0800e-07,-0.003
8.1600e-07,-0.0045
8.2400e-07,-0.0055
8.3200e-07,-0.0065
8.4000e-07,-0.007
8.4800e-07,-0.007
8.5600e-07,-0.008
8.6400e-07,-0.0105
8.7200e-07,-0.0095
8.8000e-07,-0.01
8.8800e-07,-0.0105
8.9600e-07,-0.011
9.0400e-07,-0.011
9.1200e-07,-0.0105
9.2000e-07,-0.011
9.2800e-07,-0.011
9.3600e-07,-0.01
9.4400e-07,-0.01
9.5200e-07,-0.0095
9.6000e-07,-0.0105
9.6800e-07,-0.009
9.7600e-07,-0.0085
9.8400e-07,-0.008
9.9200e-07,-0.007
1.0000e-06,-0.0065
1.0080e-06,-0.006
1.0160e-06,-0.0045
1.0240e-06,-0.0035
1.0320e-06,-0.003
1.0400e-06,-0.002
1.0480e-06,-0.0015
1.0560e-06,-0.001
1.0640e-06,0.001
1.0720e-06,0.0015
1.0800e-06,0.0025
1.0880e-06,0.003
1.0960e-06,0.0035
1.1040e-06,0.0055
1.1120e-06,0.006
1.1200e-06,0.0065
1.1280e-06,0.0065
1.1360e-06,0.0075
1.1440e-06,0.009
1.1520e-06,0.0095
1.1600e-06,0.0095
1.1680e-06,0.0105
1.1760e-06,0.0095
1.1840e-06,0.011
1.1920e-06,0.012
1.2000e-06,0.0105
1.2080e-06,0.0115
1.2160e-06,0.012
1.2240e-06,0.013
1.2320e-06,0.0125
1.2400e-06,0.012
1.2480e-06,0.0115
1.2560e-06,0.012
1.2640e-06,0.011
1.2720e-06,0.0115
1.2800e-06,0.0105
1.2880e-06,0.01
1.2960e-06,0.009
1.3040e-06,0.0085
1.3120e-06,0.0085
1.3200e-06,0.007
1.3280e-06,0.006
1.3360e-06,0.0055
1.3440e-06,0.005
1.3520e-06,0.0035
1.3600e-06,0.0025
1.3680e-06,0.002
1.3760e-06,0.001
1.3840e-06,-0.0005
1.3920e-06,-0.0015
1.4000e-06,-0.0025
1.4080e-06,-0.0035
1.4160e-06,-0.004
1.4240e-06,-0.0045
1.4320e-06,-0.006
1.4400e-06,-0.006
1.4480e-06,-0.007
1.4560e-06,-0.0085
1.4640e-06,-0.0085
1.4720e-06,-0.0095
1.4800e-06,-0.0105
1.4880e-06,-0.0105
1.4960e-06,-0.0105
1.5040e-06,-0.0105
1.5120e-06,-0.011
1.5200e-06,-0.0115
1.5280e-06,-0.012
1.5360e-06,-0.0115
1.5440e-06,-0.011
1.5520e-06,-0.011
1.5600e-06,-0.0105
1.5680e-06,-0.0105
1.5760e-06,-0.0095
1.5840e-06,-0.009
1.5920e-06,-0.009
1.6000e-06,-0.008
1.6080e-06,-0.0075
1.6160e-06,-0.006
1.6240e-06,-0.006
1.6320e-06,-0.0045
1.6400e-06,-0.0045
1.6480e-06,-0.003
1.6560e-06,-0.0015
1.6640e-06,-0.0005
1.6720e-06,-1.49012e-11
1.6800e-06,0.001
1.6880e-06,0.002
1.6960e-06,0.003
1.7040e-06,0.004
1.7120e-06,0.0055
1.7200e-06,0.0065
1.7280e-06,0.007
1.7360e-06,0.008
1.7440e-06,0.0085
1.7520e-06,0.0095
1.7600e-06,0.01
1.7680e-06,0.011
1.7760e-06,0.0105
1.7840e-06,0.0105
1.7920e-06,0.012
1.8000e-06,0.0125
1.8080e-06,0.0125
1.8160e-06,0.013
1.8240e-06,0.0125
1.8320e-06,0.0135
1.8400e-06,0.0135
1.8480e-06,0.0125
1.8560e-06,0.0125
1.8640e-06,0.0115
1.8720e-06,0.0115
1.8800e-06,0.011
1.8880e-06,0.011
1.8960e-06,0.0095
1.9040e-06,0.009
1.9120e-06,0.0085
1.9200e-06,0.0075
1.9280e-06,0.006
1.9360e-06,0.006
1.9440e-06,0.0045
1.9520e-06,0.003
1.9600e-06,0.0015
1.9680e-06,0.0015
1.9760e-06,0.0005
1.9840e-06,-0.0005
1.9920e-06,-0.002
2.0000e-06,-0.003
2.0080e-06,-0.0045
2.0160e-06,-0.006
2.0240e-06,-0.0065
2.0320e-06,-0.0075
2.0400e-06,-0.0085
2.0480e-06,-0.0095
2.0560e-06,-0.0095
2.0640e-06,-0.011
2.0720e-06,-0.01
2.0800e-06,-0.0105
2.0880e-06,-0.0125
2.0960e-06,-0.012
2.1040e-06,-0.012
2.1120e-06,-0.012
2.1200e-06,-0.0115
2.1280e-06,-0.012
2.1360e-06,-0.0115
2.1440e-06,-0.0115
2.1520e-06,-0.0115
2.1600e-06,-0.0105
2.1680e-06,-0.0095
2.1760e-06,-0.009
2.1840e-06,-0.009
2.1920e-06,-0.008
2.2000e-06,-0.0065
2.2080e-06,-0.006
2.2160e-06,-0.005
2.2240e-06,-0.004
2.2320e-06,-0.0035
2.2400e-06,-0.002
2.2480e-06,-0.001
2.2560e-06,-1.49012e-11
2.2640e-06,-0.0005
2.2720e-06,0.002
2.2800e-06,0.0025
2.2880e-06,0.003
2.2960e-06,0.0045
2.3040e-06,0.005
2.3120e-06,0.006
2.3200e-06,0.0065
2.3280e-06,0.008
2.3360e-06,0.0085
2.3440e-06,0.0085
2.3520e-06,0.009
2.3600e-06,0.0095
2.3680e-06,0.009
2.3760e-06,0.0105
2.3840e-06,0.0105
2.3920e-06,0.011
2.4000e-06,0.0105
2.4080e-06,0.011
2.4160e-06,0.011
2.4240e-06,0.011
2.4320e-06,0.0115
2.4400e-06,0.0105
2.4480e-06,0.01
2.4560e-06,0.0095
2.4640e-06,0.0085
2.4720e-06,0.008
2.4800e-06,0.007
2.4880e-06,0.006
2.4960e-06,0.005
2.5040e-06,0.004
2.5120e-06,0.004
2.5200e-06,0.002
2.5280e-06,0.001
2.5360e-06,0.0005
2.5440e-06,-0.001
2.5520e-06,-0.0015
2.5600e-06,-0.003
2.5680e-06,-0.004
2.5760e-06,-0.0055
2.5840e-06,-0.0065
2.5920e-06,-0.008
2.6000e-06,-0.008
2.6080e-06,-0.009
2.6160e-06,-0.0095
2.6240e-06,-0.011
2.6320e-06,-0.0115
2.6400e-06,-0.012
2.6480e-06,-0.0125
