data/hydrophone_acoustic_pressure/quasi2D_RP71s_channel_scan/raw_csv/CSV10_X10_Y09_Z06.csv

Model,TBS2072
Firmware Version,v1.26.0

Point Format,Y
Horizontal Units,S
Horizontal Scale,4e-07
Sample Interval,4e-09
Filter Frequency,1e+08
Record Length,2000
Gating,0.0% to 100.0%
Probe Attenuation,1
Vertical Units,V
Vertical Offset,0
Vertical Scale,0.5
Label,
TIME,CH2
-2.880e-06,0
-2.876e-06,0
-2.872e-06,0
-2.868e-06,0.025
-2.864e-06,0.025
-2.860e-06,0.025
-2.856e-06,0.025
-2.852e-06,0.025
-2.848e-06,0
-2.844e-06,0
-2.840e-06,0.025
-2.836e-06,0
-2.832e-06,-0.025
-2.828e-06,0
-2.824e-06,0
-2.820e-06,0
-2.816e-06,0
-2.812e-06,-0.025
-2.808e-06,0
-2.804e-06,0
-2.800e-06,0
-2.796e-06,0
-2.792e-06,0
-2.788e-06,0
-2.784e-06,-0.025
-2.780e-06,0
-2.776e-06,0
-2.772e-06,-0.025
-2.768e-06,0
-2.764e-06,0
-2.760e-06,0
-2.756e-06,-0.025
-2.752e-06,0
-2.748e-06,0
-2.744e-06,0
-2.740e-06,0
-2.736e-06,0
-2.732e-06,0
-2.728e-06,0
-2.724e-06,0
-2.720e-06,0.025
-2.716e-06,0.025
-2.712e-06,0.025
-2.708e-06,0.025
-2.704e-06,0.025
-2.700e-06,0.025
-2.696e-06,0.025
-2.692e-06,0.025
-2.688e-06,0.025
-2.684e-06,0.025
-2.680e-06,0.025
-2.676e-06,0.025
-2.672e-06,0.025
-2.668e-06,0.025
-2.664e-06,0.025
-2.660e-06,0.025
-2.656e-06,0
-2.652e-06,0.025
-2.648e-06,0.025
-2.644e-06,0.025
-2.640e-06,0.025
-2.636e-06,0.025
-2.632e-06,0.025
-2.628e-06,0.05
-2.624e-06,0.025
-2.620e-06,0
-2.616e-06,0.025
-2.612e-06,0.025
-2.608e-06,0
-2.604e-06,0
-2.600e-06,0
-2.596e-06,0
-2.592e-06,0
-2.588e-06,0
-2.584e-06,0
-2.580e-06,0
-2.576e-06,0.025
-2.572e-06,0
-2.568e-06,-0.025
-2.564e-06,-0.025
-2.560e-06,0
-2.556e-06,0
-2.552e-06,0
-2.548e-06,0.025
-2.544e-06,0
-2.540e-06,0
-2.536e-06,0
-2.532e-06,0.025
-2.528e-06,0
-2.524e-06,-0.025
-2.520e-06,0
-2.516e-06,0
-2.512e-06,0
-2.508e-06,0
-2.504e-06,0
-2.500e-06,0
-2.496e-06,-0.025
-2.492e-06,0
-2.488e-06,0
-2.484e-06,0
-2.480e-06,0
-2.476e-06,0
-2.472e-06,0
-2.468e-06,0
-2.464e-06,0.025
-2.460e-06,0
-2.456e-06,0
-2.452e-06,0
-2.448e-06,0
-2.444e-06,0
-2.440e-06,0
-2.436e-06,-0.025
-2.432e-06,-0.025
-2.428e-06,-0.025
-2.424e-06,-0.025
-2.420e-06,0
-2.416e-06,-0.025
-2.412e-06,0.025
-2.408e-06,-0.025
-2.404e-06,0
-2.400e-06,-0.025
-2.396e-06,0
-2.392e-06,0
-2.388e-06,0
-2.384e-06,0
-2.380e-06,0.025
-2.376e-06,0
-2.372e-06,0
-2.368e-06,0
-2.364e-06,0
-2.360e-06,0
-2.356e-06,0
-2.352e-06,0
-2.348e-06,0
-2.344e-06,0
-2.340e-06,0
-2.336e-06,0
-2.332e-06,0.025
-2.328e-06,0
-2.324e-06,0.025
-2.320e-06,-0.025
-2.316e-06,0
-2.312e-06,0
-2.308e-06,0.025
-2.304e-06,0
-2.300e-06,0
-2.296e-06,0
-2.292e-06,0.025
-2.288e-06,0
-2.284e-06,0
-2.280e-06,0
-2.276e-06,0
-2.272e-06,0.025
-2.268e-06,0.025
-2.264e-06,0
-2.260e-06,0.025
-2.256e-06,0.025
-2.252e-06,0.025
-2.248e-06,0
-2.244e-06,0.025
-2.240e-06,0.025
-2.236e-06,0.025
-2.232e-06,0
-2.228e-06,0
-2.224e-06,0
-2.220e-06,0
-2.216e-06,0
-2.212e-06,0.025
-2.208e-06,0
-2.204e-06,0.025
-2.200e-06,0
-2.196e-06,0.025
-2.192e-06,0.025
-2.188e-06,0
-2.184e-06,0
-2.180e-06,0.025
-2.176e-06,0
-2.172e-06,0.025
-2.168e-06,0
-2.164e-06,0
-2.160e-06,0
-2.156e-06,0
-2.152e-06,0
-2.148e-06,0
-2.144e-06,0.025
-2.140e-06,0.025
-2.136e-06,0
-2.132e-06,0
-2.128e-06,0
-2.124e-06,0
-2.120e-06,0.025
-2.116e-06,0.025
-2.112e-06,0.025
-2.108e-06,0
-2.104e-06,0
-2.100e-06,0
-2.096e-06,0
-2.092e-06,0.025
-2.088e-06,0
-2.084e-06,0
-2.080e-06,0.025
-2.076e-06,0
-2.072e-06,0.025
-2.068e-06,0
-2.064e-06,0
-2.060e-06,0
-2.056e-06,0
-2.052e-06,0.025
-2.048e-06,0
-2.044e-06,0
-2.040e-06,0
-2.036e-06,0
-2.032e-06,0
-2.028e-06,0
-2.024e-06,0
-2.020e-06,0
-2.016e-06,0.025
-2.012e-06,0
-2.008e-06,-0.025
-2.004e-06,0
-2.000e-06,-0.025
-1.996e-06,0
-1.992e-06,0
-1.988e-06,0
-1.984e-06,-0.025
-1.980e-06,-0.025
-1.976e-06,0
-1.972e-06,0
-1.968e-06,0
-1.964e-06,0
-1.960e-06,0
-1.956e-06,0.025
-1.952e-06,0
-1.948e-06,0
-1.944e-06,0.025
-1.940e-06,0
-1.936e-06,0
-1.932e-06,0
-1.928e-06,0
-1.924e-06,0
-1.920e-06,0
-1.916e-06,0
-1.912e-06,0
-1.908e-06,0
-1.904e-06,0
-1.900e-06,0
-1.896e-06,0
-1.892e-06,0.025
-1.888e-06,0
-1.884e-06,0
-1.880e-06,0
-1.876e-06,0
-1.872e-06,0
-1.868e-06,0
-1.864e-06,0
-1.860e-06,0
-1.856e-06,0
-1.852e-06,0
-1.848e-06,0.025
-1.844e-06,0.025
-1.840e-06,0
-1.836e-06,0.025
-1.832e-06,0.025
-1.828e-06,0
-1.824e-06,0
-1.820e-06,0
-1.816e-06,0.025
-1.812e-06,0
-1.808e-06,0
-1.804e-06,0.025
-1.800e-06,0.025
-1.796e-06,0
-1.792e-06,0.025
-1.788e-06,0
-1.784e-06,0
-1.780e-06,0
-1.776e-06,0
-1.772e-06,0.025
-1.768e-06,0
-1.764e-06,0
-1.760e-06,0
-1.756e-06,0
-1.752e-06,0
-1.748e-06,0
-1.744e-06,0
-1.740e-06,0
-1.736e-06,0
-1.732e-06,0.025
-1.728e-06,0.025
-1.724e-06,0
-1.720e-06,0
-1.716e-06,0.025
-1.712e-06,0.025
-1.708e-06,0
-1.704e-06,0.025
-1.700e-06,0.025
-1.696e-06,0
-1.692e-06,0
-1.688e-06,0
-1.684e-06,0
-1.680e-06,0
-1.676e-06,0
-1.672e-06,0
-1.668e-06,-0.025
-1.664e-06,0
-1.660e-06,0
-1.656e-06,0.025
-1.652e-06,0
-1.648e-06,0
-1.644e-06,0
-1.640e-06,0
-1.636e-06,0.025
-1.632e-06,0
-1.628e-06,0.025
-1.624e-06,0
-1.620e-06,0
-1.616e-06,0
-1.612e-06,0
-1.608e-06,0.025
-1.604e-06,0
-1.600e-06,0
-1.596e-06,0.025
-1.592e-06,0.025
-1.588e-06,0.025
-1.584e-06,0
-1.580e-06,0
-1.576e-06,0
-1.572e-06,0
-1.568e-06,0
-1.564e-06,0.025
-1.560e-06,0.025
-1.556e-06,0
-1.552e-06,0.025
-1.548e-06,0
-1.544e-06,0.025
-1.540e-06,0
-1.536e-06,0.025
-1.532e-06,0
-1.528e-06,0
-1.524e-06,0
-1.520e-06,0
-1.516e-06,0
-1.512e-06,0
-1.508e-06,0
-1.504e-06,0
-1.500e-06,0
-1.496e-06,0
-1.492e-06,0
-1.488e-06,0
-1.484e-06,0.025
-1.480e-06,0
-1.476e-06,0
-1.472e-06,0
-1.468e-06,0
-1.464e-06,0
-1.460e-06,0
-1.456e-06,0
-1.452e-06,0
-1.448e-06,0
-1.444e-06,0.025
-1.440e-06,0
-1.436e-06,0.025
-1.432e-06,0
-1.428e-06,0
-1.424e-06,0
-1.420e-06,0
-1.416e-06,0
-1.412e-06,0
-1.408e-06,0
-1.404e-06,0.025
-1.400e-06,0
-1.396e-06,0
-1.392e-06,0
-1.388e-06,0.025
-1.384e-06,0
-1.380e-06,0
-1.376e-06,0
-1.372e-06,0.025
-1.368e-06,0
-1.364e-06,0
-1.360e-06,0.025
-1.356e-06,0.025
-1.352e-06,0.025
-1.348e-06,0
-1.344e-06,0.025
-1.340e-06,0
-1.336e-06,0
-1.332e-06,0
-1.328e-06,0
-1.324e-06,0
-1.320e-06,0
-1.316e-06,0.025
-1.312e-06,0.025
-1.308e-06,0.025
-1.304e-06,0.025
-1.300e-06,0.025
-1.296e-06,0.025
-1.292e-06,0
-1.288e-06,0.025
-1.284e-06,0
-1.280e-06,0.025
-1.276e-06,0
-1.272e-06,0.025
-1.268e-06,0.025
-1.264e-06,0
-1.260e-06,0.025
-1.256e-06,0
-1.252e-06,0.025
-1.248e-06,0.025
-1.244e-06,0
-1.240e-06,0
-1.236e-06,0
-1.232e-06,0
-1.228e-06,0.025
-1.224e-06,0
-1.220e-06,0
-1.216e-06,0.025
-1.212e-06,0
-1.208e-06,0.025
-1.204e-06,0
-1.200e-06,0
-1.196e-06,0
-1.192e-06,0
-1.188e-06,0
-1.184e-06,0
-1.180e-06,0.025
-1.176e-06,0
-1.172e-06,0
-1.168e-06,0.025
-1.164e-06,0
-1.160e-06,0
-1.156e-06,0
-1.152e-06,0
-1.148e-06,0
-1.144e-06,0
-1.140e-06,0.025
-1.136e-06,-0.025
-1.132e-06,0.025
-1.128e-06,0
-1.124e-06,0.025
-1.120e-06,0
-1.116e-06,0
-1.112e-06,0.025
-1.108e-06,0
-1.104e-06,0
-1.100e-06,0
-1.096e-06,0.025
-1.092e-06,0
-1.088e-06,0
-1.084e-06,0
-1.080e-06,0
-1.076e-06,0
-1.072e-06,0
-1.068e-06,0.025
-1.064e-06,0.025
-1.060e-06,0.025
-1.056e-06,0
-1.052e-06,0
-1.048e-06,0
-1.044e-06,0
-1.040e-06,0
-1.036e-06,-0.025
-1.032e-06,0
-1.028e-06,0
-1.024e-06,0
-1.020e-06,0
-1.016e-06,0.025
-1.012e-06,-0.025
-1.008e-06,0.025
-1.004e-06,0
-1.000e-06,0
-9.960e-07,0.025
-9.920e-07,0
-9.880e-07,0.025
-9.840e-07,0.025
-9.800e-07,0.025
-9.760e-07,0
-9.720e-07,0.025
-9.680e-07,0
-9.640e-07,0
-9.600e-07,0
-9.560e-07,0
-9.520e-07,0
-9.480e-07,0
-9.440e-07,0
-9.400e-07,0
-9.360e-07,0.025
-9.320e-07,0
-9.280e-07,0
-9.240e-07,0
-9.200e-07,0.025
-9.160e-07,0
-9.120e-07,0
-9.080e-07,0
-9.040e-07,-0.025
-9.000e-07,0
-8.960e-07,0.025
-8.920e-07,0
-8.880e-07,0
-8.840e-07,0.025
-8.800e-07,0
-8.760e-07,0.025
-8.720e-07,0
-8.680e-07,0.025
-8.640e-07,0
-8.600e-07,0
-8.560e-07,0.025
-8.520e-07,0.025
-8.480e-07,0
-8.440e-07,0.025
-8.400e-07,0.025
-8.360e-07,0
-8.320e-07,0
-8.280e-07,0
-8.240e-07,0.025
-8.200e-07,0.025
-8.160e-07,0.025
-8.120e-07,0.025
-8.080e-07,0
-8.040e-07,0
-8.000e-07,0
-7.960e-07,0.025
-7.920e-07,0
-7.880e-07,0
-7.840e-07,0
-7.800e-07,0.025
-7.760e-07,0.025
-7.720e-07,0.025
-7.680e-07,0
-7.640e-07,0.025
-7.600e-07,0.025
-7.560e-07,0.025
-7.520e-07,0.025
-7.480e-07,0.025
-7.440e-07,0.025
-7.400e-07,0
-7.360e-07,0
-7.320e-07,0
-7.280e-07,0.025
-7.240e-07,0
-7.200e-07,0.025
-7.160e-07,0.025
-7.120e-07,0
-7.080e-07,0
-7.040e-07,0
-7.000e-07,0.025
-6.960e-07,0.025
-6.920e-07,0
-6.880e-07,0.025
-6.840e-07,0
-6.800e-07,0.025
-6.760e-07,0.025
-6.720e-07,0.025
-6.680e-07,0
-6.640e-07,0
-6.600e-07,0
-6.560e-07,0
-6.520e-07,0
-6.480e-07,0.025
-6.440e-07,0.025
-6.400e-07,0.025
-6.360e-07,0.025
-6.320e-07,0.025
-6.280e-07,0
-6.240e-07,0.025
-6.200e-07,0.025
-6.160e-07,0.025
-6.120e-07,0
-6.080e-07,0
-6.040e-07,0.025
-6.000e-07,0.025
-5.960e-07,0
-5.920e-07,0.025
-5.880e-07,0.025
-5.840e-07,0.025
-5.800e-07,0.025
-5.760e-07,0
-5.720e-07,0.025
-5.680e-07,0.025
-5.640e-07,0.025
-5.600e-07,0
-5.560e-07,0.025
-5.520e-07,0.025
-5.480e-07,0.025
-5.440e-07,0.05
-5.400e-07,0.025
-5.360e-07,0.025
-5.320e-07,0.05
-5.280e-07,0.05
-5.240e-07,0.025
-5.200e-07,0.05
-5.160e-07,0.025
-5.120e-07,0.05
-5.080e-07,0.025
-5.040e-07,0.025
-5.000e-07,0.05
-4.960e-07,0.05
-4.920e-07,0.05
-4.880e-07,0.05
-4.840e-07,0.05
-4.800e-07,0.05
-4.760e-07,0.05
-4.720e-07,0.05
-4.680e-07,0.05
-4.640e-07,0.05
-4.600e-07,0.05
-4.560e-07,0.05
-4.520e-07,0.05
-4.480e-07,0.025
-4.440e-07,0.05
-4.400e-07,0.075
-4.360e-07,0.05
-4.320e-07,0.05
-4.280e-07,0.05
-4.240e-07,0.025
-4.200e-07,0.05
-4.160e-07,0.05
-4.120e-07,0.05
-4.080e-07,0.025
-4.040e-07,0.05
-4.000e-07,0.025
-3.960e-07,0.05
-3.920e-07,0.025
-3.880e-07,0.05
-3.840e-07,0.025
-3.800e-07,0.025
-3.760e-07,0.05
-3.720e-07,0.05
-3.680e-07,0.025
-3.640e-07,0.025
-3.600e-07,0.025
-3.560e-07,0.025
-3.520e-07,0.025
-3.480e-07,0.025
-3.440e-07,0.025
-3.400e-07,0.025
-3.360e-07,0.025
-3.320e-07,0.025
-3.280e-07,0.025
-3.240e-07,0
-3.200e-07,0
-3.160e-07,0
-3.120e-07,-0.025
-3.080e-07,-0.025
-3.040e-07,-0.025
-3.000e-07,-0.025
-2.960e-07,-0.025
-2.920e-07,-0.025
-2.880e-07,-0.025
-2.840e-07,-0.05
-2.800e-07,-0.025
-2.760e-07,-0.025
-2.720e-07,-0.05
-2.680e-07,-0.05
-2.640e-07,-0.025
-2.600e-07,-0.05
-2.560e-07,-0.05
-2.520e-07,-0.05
-2.480e-07,-0.05
-2.440e-07,-0.075
-2.400e-07,-0.075
-2.360e-07,-0.05
-2.320e-07,-0.05
-2.280e-07,-0.05
-2.240e-07,-0.05
-2.200e-07,-0.05
-2.160e-07,-0.1
-2.120e-07,-0.075
-2.080e-07,-0.075
-2.040e-07,-0.075
-2.000e-07,-0.075
-1.960e-07,-0.075
-1.920e-07,-0.05
-1.880e-07,-0.1
-1.840e-07,-0.075
-1.800e-07,-0.075
-1.760e-07,-0.1
-1.720e-07,-0.075
-1.680e-07,-0.075
-1.640e-07,-0.075
-1.600e-07,-0.075
-1.560e-07,-0.1
-1.520e-07,-0.075
-1.480e-07,-0.125
-1.440e-07,-0.075
-1.400e-07,-0.075
-1.360e-07,-0.075
-1.320e-07,-0.075
-1.280e-07,-0.05
-1.240e-07,-0.075
-1.200e-07,-0.075
-1.160e-07,-0.075
-1.120e-07,-0.075
-1.080e-07,-0.075
-1.040e-07,-0.075
-1.000e-07,-0.05
-9.600e-08,-0.05
-9.200e-08,-0.075
-8.800e-08,-0.05
-8.400e-08,-0.05
-8.000e-08,-0.025
-7.600e-08,-0.05
-7.200e-08,-0.025
-6.800e-08,-0.025
-6.400e-08,-0.025
-6.000e-08,0
-5.600e-08,-0.025
-5.200e-08,0
-4.800e-08,0
-4.400e-08,0
-4.000e-08,0.025
-3.600e-08,0
-3.200e-08,0
-2.800e-08,0
-2.400e-08,0.025
-2.000e-08,0
-1.600e-08,0.025
-1.200e-08,0.025
-8.000e-09,0.05
-4.000e-09,0.05
-1.197e-20,0.05
4.000e-09,0.025
8.000e-09,0.075
1.200e-08,0.075
1.600e-08,0.05
2.000e-08,0.05
2.400e-08,0.1
2.800e-08,0.075
3.200e-08,0.075
3.600e-08,0.075
4.000e-08,0.075
4.400e-08,0.075
4.800e-08,0.1
5.200e-08,0.1
5.600e-08,0.1
6.000e-08,0.1
6.400e-08,0.075
6.800e-08,0.075
7.200e-08,0.1
7.600e-08,0.125
8.000e-08,0.1
8.400e-08,0.1
8.800e-08,0.125
9.200e-08,0.125
9.600e-08,0.125
1.000e-07,0.1
1.040e-07,0.1
1.080e-07,0.1
1.120e-07,0.1
1.160e-07,0.1
1.200e-07,0.125
1.240e-07,0.125
1.280e-07,0.1
1.320e-07,0.1
1.360e-07,0.1
1.400e-07,0.1
1.440e-07,0.1
1.480e-07,0.1
1.520e-07,0.1
1.560e-07,0.1
1.600e-07,0.075
1.640e-07,0.1
1.680e-07,0.075
1.720e-07,0.075
1.760e-07,0.075
1.800e-07,0.075
1.840e-07,0.05
1.880e-07,0.05
1.920e-07,0.05
1.960e-07,0.075
2.000e-07,0.05
2.040e-07,0.05
2.080e-07,0.025
2.120e-07,0.05
2.160e-07,0.025
2.200e-07,0
2.240e-07,0.025
2.280e-07,0
2.320e-07,0
2.360e-07,0.025
2.400e-07,0
2.440e-07,0
2.480e-07,-0.025
2.520e-07,0
2.560e-07,-0.025
2.600e-07,-0.025
2.640e-07,-0.025
2.680e-07,-0.025
2.720e-07,-0.025
2.760e-07,-0.05
2.800e-07,-0.05
2.840e-07,-0.05
2.880e-07,-0.075
2.920e-07,-0.075
2.960e-07,-0.075
3.000e-07,-0.075
3.040e-07,-0.075
3.080e-07,-0.05
3.120e-07,-0.075
3.160e-07,-0.075
3.200e-07,-0.075
3.240e-07,-0.075
3.280e-07,-0.075
3.320e-07,-0.1
3.360e-07,-0.1
3.400e-07,-0.1
3.440e-07,-0.1
3.480e-07,-0.1
3.520e-07,-0.1
3.560e-07,-0.125
3.600e-07,-0.1
3.640e-07,-0.075
3.680e-07,-0.1
3.720e-07,-0.1
3.760e-07,-0.075
3.800e-07,-0.1
3.840e-07,-0.1
3.880e-07,-0.1
3.920e-07,-0.075
3.960e-07,-0.075
4.000e-07,-0.1
4.040e-07,-0.1
4.080e-07,-0.1
4.120e-07,-0.1
4.160e-07,-0.075
4.200e-07,-0.075
4.240e-07,-0.075
4.280e-07,-0.075
4.320e-07,-0.075
4.360e-07,-0.075
4.400e-07,-0.075
4.440e-07,-0.075
4.480e-07,-0.05
4.520e-07,-0.05
4.560e-07,-0.05
4.600e-07,-0.05
4.640e-07,-0.05
4.680e-07,-0.025
4.720e-07,-0.025
4.760e-07,-0.025
4.800e-07,-0.025
4.840e-07,-0.025
4.880e-07,-0.025
4.920e-07,0
4.960e-07,0
5.000e-07,-0.025
5.040e-07,0.025
5.080e-07,0
5.120e-07,0
5.160e-07,0.025
5.200e-07,0.025
5.240e-07,0.025
5.280e-07,0
5.320e-07,0.05
5.360e-07,0.025
5.400e-07,0.025
5.440e-07,0.05
5.480e-07,0.075
5.520e-07,0.05
5.560e-07,0.075
5.600e-07,0.05
5.640e-07,0.1
5.680e-07,0.05
5.720e-07,0.075
5.760e-07,0.075
5.800e-07,0.1
5.840e-07,0.1
5.880e-07,0.1
5.920e-07,0.1
5.960e-07,0.1
6.000e-07,0.1
6.040e-07,0.1
6.080e-07,0.1
6.120e-07,0.125
6.160e-07,0.125
6.200e-07,0.125
6.240e-07,0.1
6.280e-07,0.125
6.320e-07,0.1
6.360e-07,0.125
6.400e-07,0.15
6.440e-07,0.125
6.480e-07,0.125
6.520e-07,0.125
6.560e-07,0.125
6.600e-07,0.1
6.640e-07,0.1
6.680e-07,0.125
6.720e-07,0.1
6.760e-07,0.15
6.800e-07,0.1
6.840e-07,0.125
6.880e-07,0.1
6.920e-07,0.125
6.960e-07,0.1
7.000e-07,0.1
7.040e-07,0.1
7.080e-07,0.1
7.120e-07,0.1
7.160e-07,0.1
7.200e-07,0.1
7.240e-07,0.1
7.280e-07,0.1
7.320e-07,0.1
7.360e-07,0.1
7.400e-07,0.1
7.440e-07,0.075
7.480e-07,0.1
7.520e-07,0.075
7.560e-07,0.05
7.600e-07,0.05
7.640e-07,0.05
7.680e-07,0.025
7.720e-07,0.05
7.760e-07,0.05
7.800e-07,0.05
7.840e-07,0.025
7.880e-07,0.025
7.920e-07,0
7.960e-07,0
8.000e-07,0.025
8.040e-07,0
8.080e-07,0
8.120e-07,0
8.160e-07,0
8.200e-07,0
8.240e-07,0
8.280e-07,0
8.320e-07,-0.025
8.360e-07,-0.025
8.400e-07,-0.025
8.440e-07,0
8.480e-07,-0.05
8.520e-07,-0.05
8.560e-07,-0.025
8.600e-07,-0.075
8.640e-07,-0.025
8.680e-07,-0.05
8.720e-07,-0.05
8.760e-07,-0.05
8.800e-07,-0.075
8.840e-07,-0.05
8.880e-07,-0.075
8.920e-07,-0.075
8.960e-07,-0.075
9.000e-07,-0.075
9.040e-07,-0.075
9.080e-07,-0.1
9.120e-07,-0.1
9.160e-07,-0.1
9.200e-07,-0.075
9.240e-07,-0.1
9.280e-07,-0.075
9.320e-07,-0.1
9.360e-07,-0.075
9.400e-07,-0.1
9.440e-07,-0.075
9.480e-07,-0.1
9.520e-07,-0.1
9.560e-07,-0.075
9.600e-07,-0.075
9.640e-07,-0.075
9.680e-07,-0.075
9.720e-07,-0.075
9.760e-07,-0.075
9.800e-07,-0.1
9.840e-07,-0.05
9.880e-07,-0.075
9.920e-07,-0.05
9.960e-07,-0.075
1.000e-06,-0.075
1.004e-06,-0.05
1.008e-06,-0.075
1.012e-06,-0.075
1.016e-06,-0.05
1.020e-06,-0.075
1.024e-06,-0.05
1.028e-06,-0.025
1.032e-06,-0.05
1.036e-06,-0.025
1.040e-06,-0.025
1.044e-06,-0.05
1.048e-06,-0.025
1.052e-06,-0.025
1.056e-06,-0.025
1.060e-06,-0.025
1.064e-06,0
1.068e-06,-0.025
1.072e-06,0
1.076e-06,0
1.080e-06,0
1.084e-06,0.025
1.088e-06,0
1.092e-06,0
1.096e-06,0
1.100e-06,0
1.104e-06,0.025
1.108e-06,0.025
1.112e-06,0.025
1.116e-06,0.025
1.120e-06,0.025
1.124e-06,0.025
1.128e-06,0.05
1.132e-06,0.025
1.136e-06,0.075
1.140e-06,0.075
1.144e-06,0.05
1.148e-06,0.075
1.152e-06,0.075
1.156e-06,0.05
1.160e-06,0.05
1.164e-06,0.075
1.168e-06,0.075
1.172e-06,0.075
1.176e-06,0.075
1.180e-06,0.075
1.184e-06,0.1
1.188e-06,0.075
1.192e-06,0.1
1.196e-06,0.1
1.200e-06,0.075
1.204e-06,0.075
1.208e-06,0.075
1.212e-06,0.1
1.216e-06,0.1
1.220e-06,0.075
1.224e-06,0.1
1.228e-06,0.1
1.232e-06,0.1
1.236e-06,0.1
1.240e-06,0.075
1.244e-06,0.1
1.248e-06,0.1
1.252e-06,0.1
1.256e-06,0.1
1.260e-06,0.1
1.264e-06,0.1
1.268e-06,0.075
1.272e-06,0.1
1.276e-06,0.1
1.280e-06,0.1
1.284e-06,0.075
1.288e-06,0.075
1.292e-06,0.05
1.296e-06,0.1
1.300e-06,0.075
1.304e-06,0.1
1.308e-06,0.075
1.312e-06,0.075
1.316e-06,0.075
1.320e-06,0.05
1.324e-06,0.075
1.328e-06,0.05
1.332e-06,0.075
1.336e-06,0.05
1.340e-06,0.05
1.344e-06,0.025
1.348e-06,0.05
1.352e-06,0.05
1.356e-06,0.025
1.360e-06,0.05
1.364e-06,0.05
1.368e-06,0.025
1.372e-06,0.025
1.376e-06,0.025
1.380e-06,0
1.384e-06,0
1.388e-06,0
1.392e-06,-0.025
1.396e-06,0
1.400e-06,0
1.404e-06,0
1.408e-06,0
1.412e-06,-0.025
1.416e-06,-0.025
1.420e-06,-0.025
1.424e-06,-0.025
1.428e-06,-0.05
1.432e-06,-0.025
1.436e-06,-0.05
1.440e-06,-0.05
1.444e-06,-0.05
1.448e-06,-0.025
1.452e-06,-0.05
1.456e-06,-0.075
1.460e-06,-0.075
1.464e-06,-0.05
1.468e-06,-0.075
1.472e-06,-0.075
1.476e-06,-0.075
1.480e-06,-0.075
1.484e-06,-0.05
1.488e-06,-0.075
1.492e-06,-0.075
1.496e-06,-0.075
1.500e-06,-0.075
1.504e-06,-0.075
1.508e-06,-0.1
1.512e-06,-0.1
1.516e-06,-0.075
1.520e-06,-0.1
1.524e-06,-0.1
1.528e-06,-0.1
1.532e-06,-0.075
1.536e-06,-0.075
1.540e-06,-0.1
1.544e-06,-0.075
1.548e-06,-0.075
1.552e-06,-0.075
1.556e-06,-0.075
1.560e-06,-0.075
1.564e-06,-0.075
1.568e-06,-0.075
1.572e-06,-0.075
1.576e-06,-0.075
1.580e-06,-0.075
1.584e-06,-0.075
1.588e-06,-0.075
1.592e-06,-0.075
1.596e-06,-0.075
1.600e-06,-0.05
1.604e-06,-0.05
1.608e-06,-0.05
1.612e-06,-0.05
1.616e-06,-0.05
1.620e-06,-0.075
1.624e-06,-0.05
1.628e-06,-0.05
1.632e-06,-0.05
1.636e-06,-0.05
1.640e-06,-0.025
1.644e-06,-0.025
1.648e-06,-0.025
1.652e-06,-0.025
1.656e-06,-0.025
1.660e-06,-0.025
1.664e-06,0
1.668e-06,-0.025
1.672e-06,-0.025
1.676e-06,0
1.680e-06,0
1.684e-06,0
1.688e-06,0.025
1.692e-06,0.025
1.696e-06,0.025
1.700e-06,0
1.704e-06,0.025
1.708e-06,0.025
1.712e-06,0.025
1.716e-06,0.05
1.720e-06,0.05
1.724e-06,0.05
1.728e-06,0.05
1.732e-06,0.05
1.736e-06,0.075
1.740e-06,0.075
1.744e-06,0.05
1.748e-06,0.075
1.752e-06,0.075
1.756e-06,0.075
1.760e-06,0.1
1.764e-06,0.075
1.768e-06,0.1
1.772e-06,0.075
1.776e-06,0.075
1.780e-06,0.1
1.784e-06,0.1
1.788e-06,0.075
1.792e-06,0.1
1.796e-06,0.1
1.800e-06,0.1
1.804e-06,0.1
1.808e-06,0.1
1.812e-06,0.1
1.816e-06,0.1
1.820e-06,0.1
1.824e-06,0.1
1.828e-06,0.125
1.832e-06,0.1
1.836e-06,0.1
1.840e-06,0.125
1.844e-06,0.1
1.848e-06,0.1
1.852e-06,0.1
1.856e-06,0.1
1.860e-06,0.125
1.864e-06,0.1
1.868e-06,0.1
1.872e-06,0.1
1.876e-06,0.1
1.880e-06,0.1
1.884e-06,0.125
1.888e-06,0.125
1.892e-06,0.075
1.896e-06,0.075
1.900e-06,0.075
1.904e-06,0.075
1.908e-06,0.1
1.912e-06,0.075
1.916e-06,0.075
1.920e-06,0.075
1.924e-06,0.075
1.928e-06,0.075
1.932e-06,0.05
1.936e-06,0.025
1.940e-06,0.05
1.944e-06,0.05
1.948e-06,0.025
1.952e-06,0.05
1.956e-06,0.025
1.960e-06,0.025
1.964e-06,0.025
1.968e-06,0.025
1.972e-06,0.025
1.976e-06,0
1.980e-06,0.025
1.984e-06,0
1.988e-06,0.025
1.992e-06,0
1.996e-06,-0.025
2.000e-06,-0.025
2.004e-06,0
2.008e-06,-0.025
2.012e-06,-0.025
2.016e-06,-0.025
2.020e-06,-0.025
2.024e-06,-0.025
2.028e-06,-0.05
2.032e-06,-0.05
2.036e-06,-0.05
2.040e-06,-0.05
2.044e-06,-0.05
2.048e-06,-0.05
2.052e-06,-0.075
2.056e-06,-0.05
2.060e-06,-0.05
2.064e-06,-0.075
2.068e-06,-0.075
2.072e-06,-0.075
2.076e-06,-0.1
2.080e-06,-0.075
2.084e-06,-0.1
2.088e-06,-0.075
2.092e-06,-0.1
2.096e-06,-0.1
2.100e-06,-0.1
2.104e-06,-0.1
2.108e-06,-0.075
2.112e-06,-0.1
2.116e-06,-0.1
2.120e-06,-0.1
2.124e-06,-0.125
2.128e-06,-0.1
2.132e-06,-0.1
2.136e-06,-0.1
2.140e-06,-0.125
2.144e-06,-0.1
2.148e-06,-0.1
2.152e-06,-0.1
2.156e-06,-0.075
2.160e-06,-0.1
2.164e-06,-0.1
2.168e-06,-0.1
2.172e-06,-0.075
2.176e-06,-0.075
2.180e-06,-0.075
2.184e-06,-0.1
2.188e-06,-0.075
2.192e-06,-0.075
2.196e-06,-0.075
2.200e-06,-0.075
2.204e-06,-0.05
2.208e-06,-0.075
2.212e-06,-0.075
2.216e-06,-0.05
2.220e-06,-0.05
2.224e-06,-0.05
2.228e-06,-0.05
2.232e-06,-0.05
2.236e-06,-0.05
2.240e-06,-0.05
2.244e-06,-0.025
2.248e-06,0
2.252e-06,-0.025
2.256e-06,0
2.260e-06,-0.025
2.264e-06,-0.025
2.268e-06,0
2.272e-06,0
2.276e-06,0.025
2.280e-06,0
2.284e-06,0.025
2.288e-06,0.025
2.292e-06,0.025
2.296e-06,0.025
2.300e-06,0.025
2.304e-06,0.05
2.308e-06,0.05
2.312e-06,0.05
2.316e-06,0.05
2.320e-06,0.05
